007_20months_DTI_antsBM
Total number of lines/fibers: 212447
ROI1, ROI2, NumberOfLines
2, 1, 2259
3, 1, 474
3, 2, 9423
4, 1, 41
4, 2, 2032
4, 3, 12363
5, 1, 668
5, 2, 1452
5, 3, 2269
5, 4, 52
6, 1, 315
6, 2, 5128
6, 3, 6450
6, 4, 4437
6, 5, 1
7, 1, 47
7, 2, 2001
7, 3, 11886
7, 4, 5920
7, 5, 25
7, 6, 1471
8, 1, 350
8, 2, 4555
8, 3, 6454
8, 4, 18711
8, 5, 5
8, 6, 4031
8, 7, 5187
9, 1, 30
9, 2, 1284
9, 3, 14703
9, 4, 21093
9, 5, 37
9, 6, 3031
9, 7, 7894
9, 8, 7730
10, 1, 0
10, 2, 679
10, 3, 6042
10, 4, 1296
10, 5, 0
10, 6, 101
10, 7, 5756
10, 8, 661
10, 9, 2217
11, 1, 3507
11, 2, 12589
11, 3, 5475
11, 4, 248
11, 5, 2547
11, 6, 1084
11, 7, 559
11, 8, 1281
11, 9, 120
11, 10, 249
12, 1, 752
12, 2, 5391
12, 3, 10688
12, 4, 217
12, 5, 5404
12, 6, 87
12, 7, 1250
12, 8, 92
12, 9, 103
12, 10, 815
12, 11, 6624
13, 1, 3
13, 2, 220
13, 3, 839
13, 4, 10
13, 5, 2693
13, 6, 0
13, 7, 2
13, 8, 0
13, 9, 2
13, 10, 0
13, 11, 558
13, 12, 1441
14, 1, 269
14, 2, 69
14, 3, 1389
14, 4, 27
14, 5, 41
14, 6, 6
14, 7, 575
14, 8, 189
14, 9, 163
14, 10, 172
14, 11, 99
14, 12, 1231
14, 13, 0
15, 1, 3
15, 2, 59
15, 3, 280
15, 4, 68
15, 5, 0
15, 6, 0
15, 7, 310
15, 8, 8
15, 9, 306
15, 10, 240
15, 11, 10
15, 12, 13
15, 13, 0
15, 14, 727
16, 1, 0
16, 2, 722
16, 3, 27007
16, 4, 4091
16, 5, 92
16, 6, 175
16, 7, 10118
16, 8, 1292
16, 9, 8485
16, 10, 6560
16, 11, 155
16, 12, 4516
16, 13, 0
16, 14, 1583
16, 15, 5330
17, 1, 0
17, 2, 5
17, 3, 1672
17, 4, 1561
17, 5, 0
17, 6, 0
17, 7, 1821
17, 8, 303
17, 9, 2447
17, 10, 53
17, 11, 0
17, 12, 4
17, 13, 0
17, 14, 7
17, 15, 2890
17, 16, 10114
18, 1, 179
18, 2, 18
18, 3, 251
18, 4, 45
18, 5, 939
18, 6, 0
18, 7, 67
18, 8, 1
18, 9, 54
18, 10, 28
18, 11, 21
18, 12, 31
18, 13, 60
18, 14, 6563
18, 15, 267
18, 16, 878
18, 17, 8
19, 1, 0
19, 2, 918
19, 3, 701
19, 4, 553
19, 5, 1
19, 6, 1067
19, 7, 2
19, 8, 243
19, 9, 642
19, 10, 7
19, 11, 31
19, 12, 0
19, 13, 0
19, 14, 5
19, 15, 980
19, 16, 4274
19, 17, 3138
19, 18, 5
20, 1, 0
20, 2, 469
20, 3, 6834
20, 4, 1460
20, 5, 25
20, 6, 33
20, 7, 11908
20, 8, 308
20, 9, 7091
20, 10, 3164
20, 11, 213
20, 12, 2225
20, 13, 0
20, 14, 2219
20, 15, 438
20, 16, 16051
20, 17, 7509
20, 18, 108
20, 19, 945
21, 1, 12
21, 2, 0
21, 3, 630
21, 4, 461
21, 5, 10
21, 6, 0
21, 7, 101
21, 8, 304
21, 9, 994
21, 10, 1
21, 11, 0
21, 12, 0
21, 13, 0
21, 14, 1612
21, 15, 1334
21, 16, 7937
21, 17, 16624
21, 18, 229
21, 19, 3640
21, 20, 5310
22, 1, 0
22, 2, 6
22, 3, 3869
22, 4, 1360
22, 5, 0
22, 6, 0
22, 7, 5489
22, 8, 252
22, 9, 10641
22, 10, 606
22, 11, 0
22, 12, 4
22, 13, 0
22, 14, 282
22, 15, 2352
22, 16, 14387
22, 17, 18582
22, 18, 59
22, 19, 2996
22, 20, 11890
22, 21, 8940
23, 1, 0
23, 2, 274
23, 3, 2115
23, 4, 467
23, 5, 5
23, 6, 0
23, 7, 2964
23, 8, 97
23, 9, 797
23, 10, 1864
23, 11, 102
23, 12, 139
23, 13, 0
23, 14, 294
23, 15, 220
23, 16, 3629
23, 17, 127
23, 18, 28
23, 19, 5
23, 20, 3451
23, 21, 151
23, 22, 317
24, 1, 19
24, 2, 115
24, 3, 504
24, 4, 344
24, 5, 27
24, 6, 0
24, 7, 957
24, 8, 36
24, 9, 453
24, 10, 431
24, 11, 67
24, 12, 52
24, 13, 0
24, 14, 8216
24, 15, 5199
24, 16, 5720
24, 17, 2888
24, 18, 6060
24, 19, 155
24, 20, 1329
24, 21, 2534
24, 22, 1519
24, 23, 345
25, 1, 4
25, 2, 110
25, 3, 4756
25, 4, 342
25, 5, 90
25, 6, 0
25, 7, 2933
25, 8, 163
25, 9, 642
25, 10, 1407
25, 11, 303
25, 12, 3594
25, 13, 0
25, 14, 6078
25, 15, 3313
25, 16, 12670
25, 17, 405
25, 18, 6051
25, 19, 62
25, 20, 5751
25, 21, 964
25, 22, 813
25, 23, 2057
25, 24, 12269
26, 1, 0
26, 2, 0
26, 3, 4
26, 4, 31
26, 5, 32
26, 6, 0
26, 7, 0
26, 8, 0
26, 9, 37
26, 10, 0
26, 11, 0
26, 12, 0
26, 13, 16
26, 14, 0
26, 15, 1
26, 16, 455
26, 17, 1
26, 18, 4674
26, 19, 0
26, 20, 31
26, 21, 0
26, 22, 32
26, 23, 0
26, 24, 47
26, 25, 1595
27, 1, 130
27, 2, 1332
27, 3, 17548
27, 4, 3526
27, 5, 211
27, 6, 622
27, 7, 4656
27, 8, 1966
27, 9, 4674
27, 10, 3971
27, 11, 1260
27, 12, 1933
27, 13, 14
27, 14, 5
27, 15, 132
27, 16, 14717
27, 17, 580
27, 18, 0
27, 19, 131
27, 20, 1951
27, 21, 369
27, 22, 1719
27, 23, 1236
27, 24, 43
27, 25, 179
27, 26, 0
28, 1, 0
28, 2, 287
28, 3, 12369
28, 4, 1788
28, 5, 0
28, 6, 71
28, 7, 3316
28, 8, 500
28, 9, 2301
28, 10, 3811
28, 11, 16
28, 12, 534
28, 13, 0
28, 14, 1762
28, 15, 1435
28, 16, 14094
28, 17, 311
28, 18, 2355
28, 19, 52
28, 20, 2568
28, 21, 393
28, 22, 297
28, 23, 1528
28, 24, 3879
28, 25, 3858
28, 26, 0
28, 27, 10690
