008_20months_DTI_antsBM
Total number of lines/fibers: 225875
008_20months_DTI_antsBM
ROI1, ROI2, NumberOfLines
2, 1, 852
3, 1, 3696
3, 2, 8150
4, 1, 788
4, 2, 3498
4, 3, 15521
5, 1, 9685
5, 2, 468
5, 3, 3746
5, 4, 822
6, 1, 71
6, 2, 6001
6, 3, 6555
6, 4, 6071
6, 5, 37
7, 1, 165
7, 2, 78
7, 3, 4925
7, 4, 5378
7, 5, 81
7, 6, 256
8, 1, 611
8, 2, 2969
8, 3, 4125
8, 4, 18043
8, 5, 119
8, 6, 4864
8, 7, 3948
9, 1, 600
9, 2, 2337
9, 3, 18710
9, 4, 21722
9, 5, 698
9, 6, 4858
9, 7, 9710
9, 8, 7392
10, 1, 261
10, 2, 70
10, 3, 4613
10, 4, 649
10, 5, 148
10, 6, 4
10, 7, 3781
10, 8, 170
10, 9, 3184
11, 1, 7185
11, 2, 7269
11, 3, 3880
11, 4, 750
11, 5, 2900
11, 6, 1195
11, 7, 975
11, 8, 1888
11, 9, 440
11, 10, 819
12, 1, 3555
12, 2, 2438
12, 3, 11411
12, 4, 1676
12, 5, 4985
12, 6, 135
12, 7, 1144
12, 8, 160
12, 9, 1474
12, 10, 545
12, 11, 5169
13, 1, 973
13, 2, 72
13, 3, 294
13, 4, 5
13, 5, 1402
13, 6, 1
13, 7, 0
13, 8, 0
13, 9, 3
13, 10, 0
13, 11, 558
13, 12, 617
14, 1, 190
14, 2, 5
14, 3, 1493
14, 4, 0
14, 5, 138
14, 6, 0
14, 7, 1098
14, 8, 332
14, 9, 144
14, 10, 592
14, 11, 513
14, 12, 1510
14, 13, 0
15, 1, 0
15, 2, 7
15, 3, 155
15, 4, 21
15, 5, 0
15, 6, 0
15, 7, 143
15, 8, 20
15, 9, 145
15, 10, 7
15, 11, 3
15, 12, 6
15, 13, 0
15, 14, 1431
16, 1, 411
16, 2, 55
16, 3, 17829
16, 4, 1445
16, 5, 125
16, 6, 3
16, 7, 5667
16, 8, 846
16, 9, 9551
16, 10, 5139
16, 11, 534
16, 12, 2514
16, 13, 0
16, 14, 4511
16, 15, 9656
17, 1, 17
17, 2, 6
17, 3, 1380
17, 4, 826
17, 5, 18
17, 6, 3
17, 7, 3369
17, 8, 321
17, 9, 3656
17, 10, 1308
17, 11, 6
17, 12, 30
17, 13, 0
17, 14, 178
17, 15, 6176
17, 16, 15440
18, 1, 636
18, 2, 3
18, 3, 949
18, 4, 0
18, 5, 957
18, 6, 0
18, 7, 20
18, 8, 39
18, 9, 189
18, 10, 11
18, 11, 11
18, 12, 6
18, 13, 2
18, 14, 9029
18, 15, 1373
18, 16, 2317
18, 17, 110
19, 1, 0
19, 2, 364
19, 3, 187
19, 4, 280
19, 5, 0
19, 6, 365
19, 7, 218
19, 8, 178
19, 9, 315
19, 10, 49
19, 11, 0
19, 12, 6
19, 13, 0
19, 14, 6
19, 15, 3374
19, 16, 7354
19, 17, 6236
19, 18, 2
20, 1, 30
20, 2, 67
20, 3, 3804
20, 4, 1377
20, 5, 31
20, 6, 4
20, 7, 9914
20, 8, 997
20, 9, 7685
20, 10, 2431
20, 11, 42
20, 12, 238
20, 13, 0
20, 14, 2887
20, 15, 1393
20, 16, 12732
20, 17, 7383
20, 18, 926
20, 19, 460
21, 1, 87
21, 2, 0
21, 3, 0
21, 4, 147
21, 5, 80
21, 6, 0
21, 7, 305
21, 8, 119
21, 9, 0
21, 10, 0
21, 11, 0
21, 12, 0
21, 13, 0
21, 14, 1068
21, 15, 2821
21, 16, 4079
21, 17, 14532
21, 18, 222
21, 19, 3581
21, 20, 5903
22, 1, 17
22, 2, 18
22, 3, 5159
22, 4, 2558
22, 5, 20
22, 6, 4
22, 7, 8828
22, 8, 176
22, 9, 10442
22, 10, 1864
22, 11, 15
22, 12, 54
22, 13, 0
22, 14, 138
22, 15, 5777
22, 16, 18184
22, 17, 17270
22, 18, 893
22, 19, 4421
22, 20, 11634
22, 21, 1994
23, 1, 19
23, 2, 10
23, 3, 711
23, 4, 96
23, 5, 16
23, 6, 0
23, 7, 3129
23, 8, 708
23, 9, 1173
23, 10, 1129
23, 11, 59
23, 12, 53
23, 13, 0
23, 14, 1699
23, 15, 72
23, 16, 3564
23, 17, 1521
23, 18, 70
23, 19, 187
23, 20, 4796
23, 21, 182
23, 22, 1449
24, 1, 25
24, 2, 9
24, 3, 352
24, 4, 35
24, 5, 5
24, 6, 0
24, 7, 443
24, 8, 236
24, 9, 325
24, 10, 125
24, 11, 129
24, 12, 169
24, 13, 0
24, 14, 9313
24, 15, 6048
24, 16, 6286
24, 17, 3053
24, 18, 5474
24, 19, 291
24, 20, 3258
24, 21, 2582
24, 22, 2758
24, 23, 492
25, 1, 83
25, 2, 5
25, 3, 1010
25, 4, 41
25, 5, 25
25, 6, 0
25, 7, 1702
25, 8, 579
25, 9, 471
25, 10, 601
25, 11, 557
25, 12, 610
25, 13, 1
25, 14, 10368
25, 15, 4342
25, 16, 10905
25, 17, 2068
25, 18, 6574
25, 19, 189
25, 20, 4682
25, 21, 793
25, 22, 1729
25, 23, 2582
25, 24, 13575
26, 1, 7
26, 2, 0
26, 3, 657
26, 4, 0
26, 5, 34
26, 6, 0
26, 7, 0
26, 8, 0
26, 9, 50
26, 10, 0
26, 11, 0
26, 12, 2
26, 13, 2
26, 14, 39
26, 15, 4
26, 16, 724
26, 17, 43
26, 18, 4509
26, 19, 0
26, 20, 635
26, 21, 0
26, 22, 676
26, 23, 39
26, 24, 55
26, 25, 1267
27, 1, 552
27, 2, 1606
27, 3, 13005
27, 4, 3164
27, 5, 195
27, 6, 269
27, 7, 1688
27, 8, 483
27, 9, 7709
27, 10, 1835
27, 11, 1580
27, 12, 1663
27, 13, 0
27, 14, 146
27, 15, 23
27, 16, 8370
27, 17, 848
27, 18, 125
27, 19, 104
27, 20, 1182
27, 21, 0
27, 22, 2592
27, 23, 409
27, 24, 127
27, 25, 244
27, 26, 0
28, 1, 4
28, 2, 14
28, 3, 10450
28, 4, 1115
28, 5, 1
28, 6, 0
28, 7, 1722
28, 8, 564
28, 9, 6162
28, 10, 2346
28, 11, 10
28, 12, 46
28, 13, 0
28, 14, 3019
28, 15, 1947
28, 16, 15687
28, 17, 1216
28, 18, 1835
28, 19, 331
28, 20, 3292
28, 21, 421
28, 22, 2412
28, 23, 1485
28, 24, 5766
28, 25, 7542
28, 26, 10
28, 27, 7231
