008_08months_DTI_antsBM
Total number of lines/fibers: 217300
008_08months_DTI_antsBM
ROI1, ROI2, NumberOfLines
2, 1, 1424
3, 1, 5974
3, 2, 6337
4, 1, 2021
4, 2, 7312
4, 3, 21309
5, 1, 9480
5, 2, 16
5, 3, 5872
5, 4, 2626
6, 1, 2444
6, 2, 7165
6, 3, 10876
6, 4, 11311
6, 5, 2005
7, 1, 623
7, 2, 26
7, 3, 8114
7, 4, 5639
7, 5, 56
7, 6, 907
8, 1, 1429
8, 2, 4548
8, 3, 9126
8, 4, 17361
8, 5, 2082
8, 6, 7106
8, 7, 2432
9, 1, 594
9, 2, 5139
9, 3, 17878
9, 4, 20505
9, 5, 1033
9, 6, 5975
9, 7, 8810
9, 8, 4281
10, 1, 151
10, 2, 42
10, 3, 4975
10, 4, 1540
10, 5, 29
10, 6, 157
10, 7, 4341
10, 8, 276
10, 9, 3464
11, 1, 7573
11, 2, 5758
11, 3, 4418
11, 4, 1904
11, 5, 1125
11, 6, 2012
11, 7, 37
11, 8, 1468
11, 9, 1395
11, 10, 22
12, 1, 4261
12, 2, 2274
12, 3, 12928
12, 4, 3174
12, 5, 3465
12, 6, 2785
12, 7, 1517
12, 8, 1206
12, 9, 2022
12, 10, 977
12, 11, 2316
13, 1, 23
13, 2, 2
13, 3, 794
13, 4, 421
13, 5, 905
13, 6, 10
13, 7, 2
13, 8, 334
13, 9, 369
13, 10, 20
13, 11, 0
13, 12, 307
14, 1, 807
14, 2, 2
14, 3, 2369
14, 4, 132
14, 5, 110
14, 6, 40
14, 7, 1271
14, 8, 227
14, 9, 357
14, 10, 736
14, 11, 0
14, 12, 2408
14, 13, 0
15, 1, 0
15, 2, 26
15, 3, 2804
15, 4, 1405
15, 5, 30
15, 6, 927
15, 7, 3785
15, 8, 628
15, 9, 4123
15, 10, 244
15, 11, 2
15, 12, 35
15, 13, 15
15, 14, 1846
16, 1, 933
16, 2, 92
16, 3, 15654
16, 4, 5665
16, 5, 256
16, 6, 627
16, 7, 4706
16, 8, 817
16, 9, 4897
16, 10, 3341
16, 11, 1
16, 12, 3054
16, 13, 49
16, 14, 7927
16, 15, 4598
17, 1, 69
17, 2, 16
17, 3, 4793
17, 4, 3836
17, 5, 11
17, 6, 867
17, 7, 5010
17, 8, 726
17, 9, 5494
17, 10, 1247
17, 11, 1
17, 12, 260
17, 13, 6
17, 14, 991
17, 15, 8226
17, 16, 17956
18, 1, 755
18, 2, 7
18, 3, 1572
18, 4, 995
18, 5, 1063
18, 6, 52
18, 7, 269
18, 8, 59
18, 9, 298
18, 10, 156
18, 11, 0
18, 12, 140
18, 13, 24
18, 14, 8691
18, 15, 1391
18, 16, 5711
18, 17, 701
19, 1, 62
19, 2, 310
19, 3, 355
19, 4, 162
19, 5, 0
19, 6, 475
19, 7, 0
19, 8, 18
19, 9, 150
19, 10, 4
19, 11, 98
19, 12, 65
19, 13, 0
19, 14, 117
19, 15, 124
19, 16, 3803
19, 17, 2208
19, 18, 355
20, 1, 71
20, 2, 63
20, 3, 7136
20, 4, 4528
20, 5, 14
20, 6, 967
20, 7, 9585
20, 8, 1005
20, 9, 10553
20, 10, 3423
20, 11, 1
20, 12, 330
20, 13, 16
20, 14, 3078
20, 15, 3876
20, 16, 12363
20, 17, 12930
20, 18, 1059
20, 19, 181
21, 1, 1
21, 2, 0
21, 3, 4
21, 4, 336
21, 5, 0
21, 6, 0
21, 7, 81
21, 8, 23
21, 9, 2
21, 10, 0
21, 11, 0
21, 12, 4
21, 13, 0
21, 14, 1393
21, 15, 135
21, 16, 776
21, 17, 8288
21, 18, 441
21, 19, 1420
21, 20, 1597
22, 1, 4
22, 2, 32
22, 3, 8519
22, 4, 5211
22, 5, 23
22, 6, 1187
22, 7, 8337
22, 8, 742
22, 9, 12742
22, 10, 3286
22, 11, 6
22, 12, 76
22, 13, 28
22, 14, 490
22, 15, 7102
22, 16, 12477
22, 17, 17371
22, 18, 833
22, 19, 1718
22, 20, 12994
22, 21, 289
23, 1, 1
23, 2, 1
23, 3, 2158
23, 4, 670
23, 5, 1
23, 6, 205
23, 7, 2636
23, 8, 483
23, 9, 1324
23, 10, 1846
23, 11, 1
23, 12, 139
23, 13, 2
23, 14, 1474
23, 15, 611
23, 16, 3908
23, 17, 2030
23, 18, 333
23, 19, 46
23, 20, 4583
23, 21, 64
23, 22, 1605
24, 1, 5
24, 2, 1
24, 3, 2088
24, 4, 1037
24, 5, 57
24, 6, 439
24, 7, 1827
24, 8, 427
24, 9, 1904
24, 10, 240
24, 11, 1
24, 12, 39
24, 13, 20
24, 14, 9810
24, 15, 5949
24, 16, 7678
24, 17, 3440
24, 18, 4502
24, 19, 47
24, 20, 2119
24, 21, 575
24, 22, 3276
24, 23, 523
25, 1, 548
25, 2, 83
25, 3, 5183
25, 4, 1441
25, 5, 127
25, 6, 222
25, 7, 2246
25, 8, 406
25, 9, 1693
25, 10, 905
25, 11, 26
25, 12, 2210
25, 13, 41
25, 14, 13957
25, 15, 4577
25, 16, 15755
25, 17, 3147
25, 18, 6058
25, 19, 149
25, 20, 4929
25, 21, 1238
25, 22, 2467
25, 23, 1986
25, 24, 11966
26, 1, 73
26, 2, 0
26, 3, 262
26, 4, 22
26, 5, 177
26, 6, 3
26, 7, 34
26, 8, 3
26, 9, 27
26, 10, 12
26, 11, 0
26, 12, 87
26, 13, 18
26, 14, 187
26, 15, 10
26, 16, 914
26, 17, 48
26, 18, 3000
26, 19, 0
26, 20, 63
26, 21, 0
26, 22, 9
26, 23, 4
26, 24, 59
26, 25, 493
27, 1, 801
27, 2, 1148
27, 3, 13949
27, 4, 5228
27, 5, 248
27, 6, 1217
27, 7, 3818
27, 8, 768
27, 9, 7190
27, 10, 3303
27, 11, 1537
27, 12, 2443
27, 13, 146
27, 14, 483
27, 15, 1723
27, 16, 8316
27, 17, 2989
27, 18, 693
27, 19, 77
27, 20, 5086
27, 21, 2
27, 22, 5956
27, 23, 1837
27, 24, 1599
27, 25, 2433
27, 26, 49
28, 1, 65
28, 2, 25
28, 3, 9782
28, 4, 4216
28, 5, 141
28, 6, 322
28, 7, 2561
28, 8, 311
28, 9, 3618
28, 10, 2132
28, 11, 0
28, 12, 230
28, 13, 26
28, 14, 4570
28, 15, 2646
28, 16, 17311
28, 17, 5715
28, 18, 1355
28, 19, 101
28, 20, 5927
28, 21, 545
28, 22, 4879
28, 23, 1900
28, 24, 8269
28, 25, 9091
28, 26, 315
28, 27, 6383
