011_28months_DTI_antsBM
Total number of lines/fibers: 230021
ROI1, ROI2, NumberOfLines
2, 1, 4968
3, 1, 5041
3, 2, 7608
4, 1, 922
4, 2, 5248
4, 3, 11951
5, 1, 9525
5, 2, 11
5, 3, 4065
5, 4, 679
6, 1, 455
6, 2, 5830
6, 3, 6944
6, 4, 10144
6, 5, 29
7, 1, 473
7, 2, 86
7, 3, 5914
7, 4, 4018
7, 5, 23
7, 6, 2654
8, 1, 876
8, 2, 2487
8, 3, 5756
8, 4, 18563
8, 5, 219
8, 6, 6666
8, 7, 3523
9, 1, 811
9, 2, 4634
9, 3, 14092
9, 4, 20329
9, 5, 835
9, 6, 7743
9, 7, 8381
9, 8, 5530
10, 1, 304
10, 2, 584
10, 3, 8261
10, 4, 2767
10, 5, 963
10, 6, 1559
10, 7, 3011
10, 8, 488
10, 9, 5589
11, 1, 10955
11, 2, 9539
11, 3, 3132
11, 4, 1671
11, 5, 1030
11, 6, 1484
11, 7, 312
11, 8, 1226
11, 9, 638
11, 10, 20
12, 1, 5013
12, 2, 2060
12, 3, 16629
12, 4, 1892
12, 5, 3532
12, 6, 1154
12, 7, 1516
12, 8, 1444
12, 9, 2137
12, 10, 2551
12, 11, 3167
13, 1, 781
13, 2, 7
13, 3, 253
13, 4, 2
13, 5, 1387
13, 6, 0
13, 7, 0
13, 8, 0
13, 9, 3
13, 10, 1
13, 11, 321
13, 12, 883
14, 1, 1279
14, 2, 41
14, 3, 5706
14, 4, 795
14, 5, 163
14, 6, 89
14, 7, 425
14, 8, 519
14, 9, 350
14, 10, 245
14, 11, 3
14, 12, 4364
14, 13, 27
15, 1, 0
15, 2, 0
15, 3, 167
15, 4, 137
15, 5, 0
15, 6, 89
15, 7, 199
15, 8, 74
15, 9, 166
15, 10, 70
15, 11, 0
15, 12, 0
15, 13, 0
15, 14, 898
16, 1, 1902
16, 2, 445
16, 3, 27792
16, 4, 3332
16, 5, 1606
16, 6, 1515
16, 7, 4692
16, 8, 1040
16, 9, 9456
16, 10, 7989
16, 11, 114
16, 12, 9037
16, 13, 1
16, 14, 7924
16, 15, 2305
17, 1, 5
17, 2, 0
17, 3, 1585
17, 4, 1268
17, 5, 0
17, 6, 1137
17, 7, 3160
17, 8, 736
17, 9, 3411
17, 10, 562
17, 11, 0
17, 12, 15
17, 13, 0
17, 14, 440
17, 15, 2739
17, 16, 12061
18, 1, 865
18, 2, 30
18, 3, 652
18, 4, 23
18, 5, 878
18, 6, 2
18, 7, 23
18, 8, 4
18, 9, 83
18, 10, 178
18, 11, 9
18, 12, 174
18, 13, 164
18, 14, 9931
18, 15, 572
18, 16, 1862
18, 17, 179
19, 1, 8
19, 2, 464
19, 3, 277
19, 4, 233
19, 5, 0
19, 6, 484
19, 7, 1
19, 8, 11
19, 9, 217
19, 10, 1
19, 11, 58
19, 12, 190
19, 13, 0
19, 14, 144
19, 15, 206
19, 16, 2220
19, 17, 3945
19, 18, 0
20, 1, 1213
20, 2, 44
20, 3, 4496
20, 4, 1475
20, 5, 3
20, 6, 1201
20, 7, 7698
20, 8, 754
20, 9, 6554
20, 10, 1512
20, 11, 0
20, 12, 1977
20, 13, 0
20, 14, 4117
20, 15, 302
20, 16, 9267
20, 17, 7999
20, 18, 397
20, 19, 113
21, 1, 9
21, 2, 0
21, 3, 0
21, 4, 58
21, 5, 8
21, 6, 0
21, 7, 25
21, 8, 10
21, 9, 0
21, 10, 0
21, 11, 0
21, 12, 0
21, 13, 0
21, 14, 2796
21, 15, 570
21, 16, 1595
21, 17, 11096
21, 18, 316
21, 19, 1384
21, 20, 3535
22, 1, 25
22, 2, 896
22, 3, 2369
22, 4, 3617
22, 5, 1
22, 6, 2869
22, 7, 7355
22, 8, 1964
22, 9, 10530
22, 10, 2639
22, 11, 85
22, 12, 20
22, 13, 0
22, 14, 174
22, 15, 2401
22, 16, 13428
22, 17, 14208
22, 18, 134
22, 19, 2812
22, 20, 9722
22, 21, 1279
23, 1, 178
23, 2, 371
23, 3, 5489
23, 4, 1767
23, 5, 20
23, 6, 1098
23, 7, 2231
23, 8, 281
23, 9, 4639
23, 10, 3905
23, 11, 26
23, 12, 2149
23, 13, 0
23, 14, 1490
23, 15, 37
23, 16, 7556
23, 17, 1067
23, 18, 202
23, 19, 2
23, 20, 3596
23, 21, 223
23, 22, 2527
24, 1, 1
24, 2, 0
24, 3, 675
24, 4, 403
24, 5, 6
24, 6, 272
24, 7, 844
24, 8, 165
24, 9, 882
24, 10, 349
24, 11, 0
24, 12, 216
24, 13, 0
24, 14, 12780
24, 15, 3654
24, 16, 5417
24, 17, 2699
24, 18, 4059
24, 19, 179
24, 20, 1354
24, 21, 2217
24, 22, 2381
24, 23, 649
25, 1, 270
25, 2, 39
25, 3, 5689
25, 4, 1447
25, 5, 8
25, 6, 381
25, 7, 1913
25, 8, 747
25, 9, 1549
25, 10, 1092
25, 11, 3
25, 12, 3782
25, 13, 1
25, 14, 15516
25, 15, 2355
25, 16, 13388
25, 17, 2338
25, 18, 3253
25, 19, 24
25, 20, 4710
25, 21, 2303
25, 22, 2425
25, 23, 2282
25, 24, 16512
26, 1, 126
26, 2, 14
26, 3, 137
26, 4, 2
26, 5, 145
26, 6, 0
26, 7, 10
26, 8, 0
26, 9, 11
26, 10, 73
26, 11, 5
26, 12, 38
26, 13, 43
26, 14, 284
26, 15, 4
26, 16, 330
26, 17, 13
26, 18, 2770
26, 19, 0
26, 20, 20
26, 21, 0
26, 22, 63
26, 23, 79
26, 24, 172
26, 25, 422
27, 1, 1953
27, 2, 953
27, 3, 20596
27, 4, 3904
27, 5, 1758
27, 6, 1717
27, 7, 3025
27, 8, 1142
27, 9, 6873
27, 10, 7254
27, 11, 1274
27, 12, 7150
27, 13, 20
27, 14, 451
27, 15, 74
27, 16, 18844
27, 17, 830
27, 18, 255
27, 19, 14
27, 20, 1270
27, 21, 0
27, 22, 1246
27, 23, 4578
27, 24, 537
27, 25, 1912
27, 26, 114
28, 1, 789
28, 2, 383
28, 3, 15139
28, 4, 1295
28, 5, 1291
28, 6, 853
28, 7, 1391
28, 8, 394
28, 9, 4177
28, 10, 4945
28, 11, 107
28, 12, 4507
28, 13, 1
28, 14, 6672
28, 15, 249
28, 16, 18385
28, 17, 1046
28, 18, 1226
28, 19, 14
28, 20, 2096
28, 21, 1833
28, 22, 1161
28, 23, 3543
28, 24, 7601
28, 25, 8224
28, 26, 145
28, 27, 13627
