014_21months_DTI_antsBM
Total number of lines/fibers: 155574
ROI1, ROI2, NumberOfLines
2, 1, 1107
3, 1, 3203
3, 2, 7345
4, 1, 833
4, 2, 5285
4, 3, 9944
5, 1, 5599
5, 2, 91
5, 3, 3332
5, 4, 699
6, 1, 350
6, 2, 5370
6, 3, 5046
6, 4, 6776
6, 5, 188
7, 1, 470
7, 2, 955
7, 3, 7189
7, 4, 6153
7, 5, 255
7, 6, 739
8, 1, 1025
8, 2, 2510
8, 3, 4154
8, 4, 12250
8, 5, 405
8, 6, 5075
8, 7, 2691
9, 1, 632
9, 2, 4741
9, 3, 10918
9, 4, 14737
9, 5, 537
9, 6, 4457
9, 7, 5634
9, 8, 3089
10, 1, 37
10, 2, 364
10, 3, 2610
10, 4, 879
10, 5, 13
10, 6, 145
10, 7, 3237
10, 8, 337
10, 9, 2761
11, 1, 5314
11, 2, 6352
11, 3, 3606
11, 4, 2081
11, 5, 554
11, 6, 1559
11, 7, 1110
11, 8, 1987
11, 9, 1855
11, 10, 487
12, 1, 3508
12, 2, 2008
12, 3, 7852
12, 4, 2089
12, 5, 3565
12, 6, 1141
12, 7, 951
12, 8, 1427
12, 9, 1747
12, 10, 476
12, 11, 2492
13, 1, 365
13, 2, 0
13, 3, 107
13, 4, 0
13, 5, 717
13, 6, 0
13, 7, 0
13, 8, 0
13, 9, 0
13, 10, 0
13, 11, 65
13, 12, 390
14, 1, 0
14, 2, 0
14, 3, 44
14, 4, 0
14, 5, 0
14, 6, 0
14, 7, 341
14, 8, 21
14, 9, 2
14, 10, 217
14, 11, 0
14, 12, 14
14, 13, 0
15, 1, 0
15, 2, 1
15, 3, 58
15, 4, 0
15, 5, 0
15, 6, 0
15, 7, 76
15, 8, 0
15, 9, 77
15, 10, 6
15, 11, 0
15, 12, 0
15, 13, 0
15, 14, 1699
16, 1, 154
16, 2, 380
16, 3, 8667
16, 4, 1189
16, 5, 275
16, 6, 72
16, 7, 3103
16, 8, 549
16, 9, 3243
16, 10, 1442
16, 11, 283
16, 12, 497
16, 13, 0
16, 14, 4236
16, 15, 1715
17, 1, 40
17, 2, 572
17, 3, 3233
17, 4, 1676
17, 5, 36
17, 6, 0
17, 7, 1556
17, 8, 335
17, 9, 3411
17, 10, 748
17, 11, 559
17, 12, 155
17, 13, 0
17, 14, 980
17, 15, 2103
17, 16, 11424
18, 1, 192
18, 2, 0
18, 3, 112
18, 4, 0
18, 5, 276
18, 6, 0
18, 7, 38
18, 8, 0
18, 9, 20
18, 10, 23
18, 11, 0
18, 12, 0
18, 13, 0
18, 14, 5587
18, 15, 1157
18, 16, 1376
18, 17, 107
19, 1, 0
19, 2, 89
19, 3, 31
19, 4, 70
19, 5, 0
19, 6, 91
19, 7, 12
19, 8, 4
19, 9, 68
19, 10, 0
19, 11, 3
19, 12, 0
19, 13, 0
19, 14, 66
19, 15, 44
19, 16, 1754
19, 17, 2337
19, 18, 11
20, 1, 38
20, 2, 901
20, 3, 3955
20, 4, 1786
20, 5, 35
20, 6, 0
20, 7, 4595
20, 8, 559
20, 9, 6034
20, 10, 2330
20, 11, 886
20, 12, 196
20, 13, 0
20, 14, 2098
20, 15, 245
20, 16, 8576
20, 17, 8224
20, 18, 179
20, 19, 50
21, 1, 0
21, 2, 0
21, 3, 2
21, 4, 265
21, 5, 0
21, 6, 0
21, 7, 216
21, 8, 118
21, 9, 0
21, 10, 1
21, 11, 0
21, 12, 0
21, 13, 0
21, 14, 1459
21, 15, 43
21, 16, 3116
21, 17, 10077
21, 18, 77
21, 19, 2329
21, 20, 2368
22, 1, 40
22, 2, 1002
22, 3, 4495
22, 4, 1799
22, 5, 36
22, 6, 0
22, 7, 4018
22, 8, 242
22, 9, 7294
22, 10, 2610
22, 11, 962
22, 12, 175
22, 13, 0
22, 14, 403
22, 15, 2216
22, 16, 10738
22, 17, 13316
22, 18, 192
22, 19, 1112
22, 20, 9370
22, 21, 1222
23, 1, 2
23, 2, 216
23, 3, 1484
23, 4, 280
23, 5, 2
23, 6, 0
23, 7, 1548
23, 8, 355
23, 9, 1153
23, 10, 715
23, 11, 216
23, 12, 65
23, 13, 0
23, 14, 788
23, 15, 0
23, 16, 2954
23, 17, 1683
23, 18, 11
23, 19, 15
23, 20, 3697
23, 21, 414
23, 22, 1777
24, 1, 0
24, 2, 0
24, 3, 0
24, 4, 0
24, 5, 0
24, 6, 0
24, 7, 69
24, 8, 0
24, 9, 77
24, 10, 6
24, 11, 0
24, 12, 0
24, 13, 0
24, 14, 8234
24, 15, 4062
24, 16, 4100
24, 17, 2202
24, 18, 3960
24, 19, 106
24, 20, 263
24, 21, 505
24, 22, 2135
24, 23, 0
25, 1, 301
25, 2, 26
25, 3, 221
25, 4, 6
25, 5, 1
25, 6, 9
25, 7, 442
25, 8, 30
25, 9, 97
25, 10, 106
25, 11, 306
25, 12, 162
25, 13, 0
25, 14, 10254
25, 15, 2471
25, 16, 7952
25, 17, 1809
25, 18, 4305
25, 19, 125
25, 20, 2096
25, 21, 1365
25, 22, 1317
25, 23, 715
25, 24, 9427
26, 1, 7
26, 2, 0
26, 3, 4
26, 4, 0
26, 5, 12
26, 6, 0
26, 7, 6
26, 8, 0
26, 9, 0
26, 10, 0
26, 11, 0
26, 12, 0
26, 13, 0
26, 14, 0
26, 15, 0
26, 16, 74
26, 17, 0
26, 18, 1488
26, 19, 0
26, 20, 1
26, 21, 0
26, 22, 2
26, 23, 0
26, 24, 17
26, 25, 543
27, 1, 717
27, 2, 1243
27, 3, 6635
27, 4, 1495
27, 5, 245
27, 6, 177
27, 7, 1760
27, 8, 264
27, 9, 2984
27, 10, 1103
27, 11, 1250
27, 12, 1730
27, 13, 0
27, 14, 0
27, 15, 0
27, 16, 4251
27, 17, 2090
27, 18, 4
27, 19, 0
27, 20, 2708
27, 21, 1
27, 22, 2969
27, 23, 1076
27, 24, 0
27, 25, 68
27, 26, 3
28, 1, 113
28, 2, 350
28, 3, 4646
28, 4, 727
28, 5, 221
28, 6, 0
28, 7, 1130
28, 8, 4
28, 9, 1784
28, 10, 770
28, 11, 350
28, 12, 234
28, 13, 0
28, 14, 3594
28, 15, 604
28, 16, 10236
28, 17, 3636
28, 18, 771
28, 19, 66
28, 20, 3635
28, 21, 295
28, 22, 3562
28, 23, 1001
28, 24, 5210
28, 25, 4938
28, 26, 3
28, 27, 2985
