014_09months_DTI_antsBM
Total number of lines/fibers: 166207
ROI1, ROI2, NumberOfLines
2, 1, 662
3, 1, 1425
3, 2, 5257
4, 1, 1098
4, 2, 2218
4, 3, 11548
5, 1, 2029
5, 2, 95
5, 3, 2543
5, 4, 519
6, 1, 106
6, 2, 2858
6, 3, 7318
6, 4, 9152
6, 5, 243
7, 1, 207
7, 2, 180
7, 3, 8528
7, 4, 6528
7, 5, 0
7, 6, 1433
8, 1, 1572
8, 2, 1254
8, 3, 5482
8, 4, 15975
8, 5, 146
8, 6, 8015
8, 7, 2572
9, 1, 377
9, 2, 2032
9, 3, 12600
9, 4, 15566
9, 5, 863
9, 6, 5853
9, 7, 8469
9, 8, 4951
10, 1, 216
10, 2, 50
10, 3, 5310
10, 4, 1363
10, 5, 324
10, 6, 364
10, 7, 5270
10, 8, 341
10, 9, 2707
11, 1, 5958
11, 2, 5495
11, 3, 2372
11, 4, 4810
11, 5, 823
11, 6, 527
11, 7, 136
11, 8, 5065
11, 9, 797
11, 10, 35
12, 1, 1395
12, 2, 1563
12, 3, 7400
12, 4, 2530
12, 5, 3897
12, 6, 1025
12, 7, 800
12, 8, 1018
12, 9, 2567
12, 10, 615
12, 11, 2831
13, 1, 57
13, 2, 2
13, 3, 19
13, 4, 1
13, 5, 705
13, 6, 0
13, 7, 0
13, 8, 0
13, 9, 9
13, 10, 8
13, 11, 47
13, 12, 363
14, 1, 17
14, 2, 1
14, 3, 357
14, 4, 188
14, 5, 0
14, 6, 0
14, 7, 911
14, 8, 42
14, 9, 18
14, 10, 669
14, 11, 0
14, 12, 64
14, 13, 0
15, 1, 0
15, 2, 28
15, 3, 128
15, 4, 82
15, 5, 0
15, 6, 0
15, 7, 158
15, 8, 0
15, 9, 162
15, 10, 29
15, 11, 3
15, 12, 1
15, 13, 0
15, 14, 1990
16, 1, 50
16, 2, 172
16, 3, 11355
16, 4, 2123
16, 5, 30
16, 6, 180
16, 7, 5469
16, 8, 155
16, 9, 5327
16, 10, 3412
16, 11, 55
16, 12, 711
16, 13, 0
16, 14, 4463
16, 15, 2080
17, 1, 0
17, 2, 35
17, 3, 1546
17, 4, 1605
17, 5, 0
17, 6, 4
17, 7, 1894
17, 8, 20
17, 9, 2093
17, 10, 551
17, 11, 32
17, 12, 12
17, 13, 0
17, 14, 2717
17, 15, 2301
17, 16, 10203
18, 1, 209
18, 2, 0
18, 3, 83
18, 4, 18
18, 5, 292
18, 6, 0
18, 7, 55
18, 8, 0
18, 9, 28
18, 10, 25
18, 11, 0
18, 12, 0
18, 13, 42
18, 14, 4519
18, 15, 1336
18, 16, 1140
18, 17, 192
19, 1, 7
19, 2, 207
19, 3, 232
19, 4, 178
19, 5, 0
19, 6, 271
19, 7, 9
19, 8, 1
19, 9, 177
19, 10, 7
19, 11, 100
19, 12, 38
19, 13, 0
19, 14, 43
19, 15, 750
19, 16, 1241
19, 17, 1983
19, 18, 36
20, 1, 18
20, 2, 101
20, 3, 5085
20, 4, 1186
20, 5, 0
20, 6, 49
20, 7, 7072
20, 8, 85
20, 9, 7482
20, 10, 2893
20, 11, 19
20, 12, 89
20, 13, 0
20, 14, 3156
20, 15, 372
20, 16, 10807
20, 17, 7152
20, 18, 245
20, 19, 420
21, 1, 0
21, 2, 0
21, 3, 8
21, 4, 506
21, 5, 0
21, 6, 0
21, 7, 14
21, 8, 7
21, 9, 0
21, 10, 9
21, 11, 6
21, 12, 1
21, 13, 0
21, 14, 3311
21, 15, 996
21, 16, 1062
21, 17, 11118
21, 18, 539
21, 19, 2815
21, 20, 2590
22, 1, 0
22, 2, 109
22, 3, 4469
22, 4, 1454
22, 5, 0
22, 6, 9
22, 7, 5384
22, 8, 7
22, 9, 8491
22, 10, 1639
22, 11, 19
22, 12, 16
22, 13, 0
22, 14, 547
22, 15, 2170
22, 16, 14800
22, 17, 11632
22, 18, 325
22, 19, 572
22, 20, 11136
22, 21, 1574
23, 1, 15
23, 2, 7
23, 3, 2072
23, 4, 244
23, 5, 0
23, 6, 0
23, 7, 2644
23, 8, 24
23, 9, 958
23, 10, 2067
23, 11, 0
23, 12, 34
23, 13, 0
23, 14, 1102
23, 15, 30
23, 16, 3892
23, 17, 764
23, 18, 49
23, 19, 71
23, 20, 3965
23, 21, 61
23, 22, 1698
24, 1, 0
24, 2, 16
24, 3, 231
24, 4, 360
24, 5, 0
24, 6, 0
24, 7, 325
24, 8, 5
24, 9, 293
24, 10, 96
24, 11, 10
24, 12, 3
24, 13, 0
24, 14, 6961
24, 15, 3850
24, 16, 3572
24, 17, 3364
24, 18, 4086
24, 19, 16
24, 20, 380
24, 21, 2800
24, 22, 1518
24, 23, 126
25, 1, 98
25, 2, 13
25, 3, 569
25, 4, 273
25, 5, 31
25, 6, 1
25, 7, 1041
25, 8, 42
25, 9, 408
25, 10, 538
25, 11, 83
25, 12, 125
25, 13, 0
25, 14, 8429
25, 15, 3915
25, 16, 8703
25, 17, 2441
25, 18, 4720
25, 19, 107
25, 20, 2859
25, 21, 1412
25, 22, 2514
25, 23, 1297
25, 24, 10167
26, 1, 1
26, 2, 0
26, 3, 1
26, 4, 1
26, 5, 19
26, 6, 0
26, 7, 1
26, 8, 0
26, 9, 1
26, 10, 0
26, 11, 0
26, 12, 0
26, 13, 18
26, 14, 0
26, 15, 0
26, 16, 3
26, 17, 1
26, 18, 425
26, 19, 0
26, 20, 1
26, 21, 0
26, 22, 3
26, 23, 0
26, 24, 1
26, 25, 21
27, 1, 412
27, 2, 829
27, 3, 7710
27, 4, 1466
27, 5, 32
27, 6, 171
27, 7, 2740
27, 8, 315
27, 9, 4218
27, 10, 1663
27, 11, 1162
27, 12, 1720
27, 13, 0
27, 14, 42
27, 15, 24
27, 16, 6539
27, 17, 1051
27, 18, 9
27, 19, 19
27, 20, 3097
27, 21, 7
27, 22, 2962
27, 23, 1190
27, 24, 31
27, 25, 77
27, 26, 0
28, 1, 29
28, 2, 65
28, 3, 7075
28, 4, 777
28, 5, 23
28, 6, 147
28, 7, 2573
28, 8, 92
28, 9, 2357
28, 10, 2162
28, 11, 35
28, 12, 621
28, 13, 0
28, 14, 2468
28, 15, 1910
28, 16, 13903
28, 17, 1642
28, 18, 1251
28, 19, 101
28, 20, 3796
28, 21, 645
28, 22, 2668
28, 23, 2249
28, 24, 5011
28, 25, 5861
28, 26, 0
28, 27, 4657
