016_08months_DTI_antsBM
Total number of lines/fibers: 183766
ROI1, ROI2, NumberOfLines
2, 1, 1384
3, 1, 3002
3, 2, 9462
4, 1, 757
4, 2, 6265
4, 3, 15343
5, 1, 1903
5, 2, 973
5, 3, 5186
5, 4, 875
6, 1, 628
6, 2, 7220
6, 3, 10118
6, 4, 5021
6, 5, 1644
7, 1, 4260
7, 2, 158
7, 3, 9530
7, 4, 3988
7, 5, 60
7, 6, 256
8, 1, 1033
8, 2, 2475
8, 3, 3845
8, 4, 10379
8, 5, 104
8, 6, 3397
8, 7, 2191
9, 1, 509
9, 2, 6363
9, 3, 18042
9, 4, 17059
9, 5, 885
9, 6, 4508
9, 7, 4763
9, 8, 1619
10, 1, 2977
10, 2, 276
10, 3, 5733
10, 4, 959
10, 5, 2
10, 6, 302
10, 7, 6810
10, 8, 237
10, 9, 2053
11, 1, 5460
11, 2, 8743
11, 3, 6449
11, 4, 2746
11, 5, 409
11, 6, 3327
11, 7, 377
11, 8, 2890
11, 9, 2572
11, 10, 271
12, 1, 6959
12, 2, 2322
12, 3, 9953
12, 4, 2336
12, 5, 3259
12, 6, 1336
12, 7, 4493
12, 8, 549
12, 9, 2531
12, 10, 3448
12, 11, 2898
13, 1, 288
13, 2, 119
13, 3, 1453
13, 4, 685
13, 5, 1321
13, 6, 125
13, 7, 235
13, 8, 12
13, 9, 693
13, 10, 37
13, 11, 60
13, 12, 1051
14, 1, 3873
14, 2, 53
14, 3, 1891
14, 4, 220
14, 5, 139
14, 6, 120
14, 7, 4058
14, 8, 93
14, 9, 87
14, 10, 3378
14, 11, 36
14, 12, 4097
14, 13, 0
15, 1, 0
15, 2, 93
15, 3, 632
15, 4, 13
15, 5, 3
15, 6, 0
15, 7, 13
15, 8, 0
15, 9, 351
15, 10, 175
15, 11, 9
15, 12, 24
15, 13, 3
15, 14, 2404
16, 1, 1304
16, 2, 680
16, 3, 18500
16, 4, 3677
16, 5, 65
16, 6, 465
16, 7, 6286
16, 8, 345
16, 9, 6003
16, 10, 6155
16, 11, 495
16, 12, 3124
16, 13, 263
16, 14, 7152
16, 15, 5455
17, 1, 5
17, 2, 89
17, 3, 3202
17, 4, 2259
17, 5, 0
17, 6, 114
17, 7, 1122
17, 8, 26
17, 9, 2035
17, 10, 749
17, 11, 46
17, 12, 84
17, 13, 10
17, 14, 1120
17, 15, 7611
17, 16, 18979
18, 1, 322
18, 2, 18
18, 3, 211
18, 4, 87
18, 5, 320
18, 6, 30
18, 7, 244
18, 8, 15
18, 9, 30
18, 10, 334
18, 11, 13
18, 12, 85
18, 13, 4
18, 14, 5767
18, 15, 1986
18, 16, 2532
18, 17, 536
19, 1, 4
19, 2, 135
19, 3, 84
19, 4, 37
19, 5, 1
19, 6, 136
19, 7, 68
19, 8, 0
19, 9, 37
19, 10, 67
19, 11, 18
19, 12, 113
19, 13, 0
19, 14, 557
19, 15, 3957
19, 16, 5643
19, 17, 4307
19, 18, 722
20, 1, 3839
20, 2, 80
20, 3, 6503
20, 4, 1502
20, 5, 1
20, 6, 205
20, 7, 8717
20, 8, 221
20, 9, 3826
20, 10, 6166
20, 11, 49
20, 12, 4202
20, 13, 1
20, 14, 6530
20, 15, 1032
20, 16, 10577
20, 17, 4123
20, 18, 259
20, 19, 633
21, 1, 1
21, 2, 0
21, 3, 30
21, 4, 384
21, 5, 0
21, 6, 0
21, 7, 58
21, 8, 3
21, 9, 1
21, 10, 48
21, 11, 0
21, 12, 3
21, 13, 0
21, 14, 1465
21, 15, 4149
21, 16, 1340
21, 17, 9225
21, 18, 74
21, 19, 3599
21, 20, 3089
22, 1, 0
22, 2, 105
22, 3, 5159
22, 4, 1497
22, 5, 18
22, 6, 18
22, 7, 3256
22, 8, 17
22, 9, 4469
22, 10, 1805
22, 11, 105
22, 12, 369
22, 13, 183
22, 14, 905
22, 15, 5770
22, 16, 22420
22, 17, 15198
22, 18, 667
22, 19, 2278
22, 20, 5520
22, 21, 650
23, 1, 2894
23, 2, 369
23, 3, 8209
23, 4, 958
23, 5, 35
23, 6, 268
23, 7, 5654
23, 8, 180
23, 9, 2013
23, 10, 6101
23, 11, 368
23, 12, 3710
23, 13, 44
23, 14, 3866
23, 15, 240
23, 16, 8645
23, 17, 860
23, 18, 311
23, 19, 61
23, 20, 6422
23, 21, 75
23, 22, 1761
24, 1, 0
24, 2, 4
24, 3, 5
24, 4, 0
24, 5, 0
24, 6, 0
24, 7, 0
24, 8, 0
24, 9, 4
24, 10, 0
24, 11, 0
24, 12, 0
24, 13, 0
24, 14, 7609
24, 15, 6074
24, 16, 5696
24, 17, 5692
24, 18, 3160
24, 19, 635
24, 20, 393
24, 21, 1052
24, 22, 4326
24, 23, 0
25, 1, 1445
25, 2, 305
25, 3, 1260
25, 4, 113
25, 5, 13
25, 6, 27
25, 7, 1788
25, 8, 11
25, 9, 320
25, 10, 1347
25, 11, 35
25, 12, 1501
25, 13, 0
25, 14, 10694
25, 15, 3184
25, 16, 10357
25, 17, 4171
25, 18, 4148
25, 19, 1307
25, 20, 2828
25, 21, 931
25, 22, 3195
25, 23, 2276
25, 24, 8592
26, 1, 0
26, 2, 0
26, 3, 0
26, 4, 0
26, 5, 0
26, 6, 0
26, 7, 0
26, 8, 0
26, 9, 0
26, 10, 0
26, 11, 0
26, 12, 0
26, 13, 0
26, 14, 0
26, 15, 0
26, 16, 356
26, 17, 0
26, 18, 742
26, 19, 105
26, 20, 0
26, 21, 0
26, 22, 196
26, 23, 0
26, 24, 0
26, 25, 174
27, 1, 2080
27, 2, 1203
27, 3, 13121
27, 4, 2752
27, 5, 223
27, 6, 436
27, 7, 4486
27, 8, 529
27, 9, 4354
27, 10, 3082
27, 11, 2074
27, 12, 2895
27, 13, 120
27, 14, 38
27, 15, 288
27, 16, 9510
27, 17, 1715
27, 18, 4
27, 19, 45
27, 20, 2488
27, 21, 21
27, 22, 2841
27, 23, 4476
27, 24, 0
27, 25, 46
27, 26, 0
28, 1, 2
28, 2, 249
28, 3, 10675
28, 4, 2622
28, 5, 44
28, 6, 0
28, 7, 2240
28, 8, 0
28, 9, 3668
28, 10, 2192
28, 11, 236
28, 12, 697
28, 13, 51
28, 14, 3385
28, 15, 1475
28, 16, 16575
28, 17, 6774
28, 18, 1117
28, 19, 476
28, 20, 3768
28, 21, 428
28, 22, 6685
28, 23, 4636
28, 24, 5743
28, 25, 6888
28, 26, 0
28, 27, 7263
