017_03months_DTI_antsBM
Total number of lines/fibers: 148400
ROI1, ROI2, NumberOfLines
2, 1, 1932
3, 1, 3773
3, 2, 10225
4, 1, 2988
4, 2, 10008
4, 3, 14389
5, 1, 1915
5, 2, 475
5, 3, 2994
5, 4, 1013
6, 1, 890
6, 2, 8034
6, 3, 4398
6, 4, 5109
6, 5, 412
7, 1, 2802
7, 2, 2287
7, 3, 9056
7, 4, 7570
7, 5, 239
7, 6, 584
8, 1, 2554
8, 2, 3305
8, 3, 275
8, 4, 9460
8, 5, 94
8, 6, 2138
8, 7, 1724
9, 1, 485
9, 2, 5677
9, 3, 14625
9, 4, 11600
9, 5, 776
9, 6, 3459
9, 7, 4344
9, 8, 337
10, 1, 1915
10, 2, 891
10, 3, 6598
10, 4, 1500
10, 5, 82
10, 6, 24
10, 7, 5202
10, 8, 47
10, 9, 1411
11, 1, 6071
11, 2, 12127
11, 3, 8478
11, 4, 8658
11, 5, 242
11, 6, 4353
11, 7, 1679
11, 8, 4202
11, 9, 4076
11, 10, 602
12, 1, 5525
12, 2, 4817
12, 3, 13886
12, 4, 4507
12, 5, 2238
12, 6, 1089
12, 7, 5359
12, 8, 187
12, 9, 3072
12, 10, 4563
12, 11, 4275
13, 1, 272
13, 2, 110
13, 3, 507
13, 4, 45
13, 5, 581
13, 6, 90
13, 7, 0
13, 8, 2
13, 9, 50
13, 10, 0
13, 11, 105
13, 12, 463
14, 1, 776
14, 2, 0
14, 3, 125
14, 4, 197
14, 5, 75
14, 6, 0
14, 7, 1056
14, 8, 35
14, 9, 0
14, 10, 588
14, 11, 0
14, 12, 896
14, 13, 0
15, 1, 1
15, 2, 532
15, 3, 892
15, 4, 478
15, 5, 32
15, 6, 0
15, 7, 463
15, 8, 0
15, 9, 251
15, 10, 184
15, 11, 230
15, 12, 528
15, 13, 0
15, 14, 1581
16, 1, 1262
16, 2, 2027
16, 3, 14822
16, 4, 3037
16, 5, 437
16, 6, 0
16, 7, 6189
16, 8, 154
16, 9, 3783
16, 10, 5638
16, 11, 1204
16, 12, 5095
16, 13, 3
16, 14, 4179
16, 15, 6710
17, 1, 102
17, 2, 1262
17, 3, 11147
17, 4, 3794
17, 5, 145
17, 6, 0
17, 7, 2631
17, 8, 139
17, 9, 2393
17, 10, 2219
17, 11, 607
17, 12, 2820
17, 13, 3
17, 14, 1063
17, 15, 2872
17, 16, 21667
18, 1, 169
18, 2, 0
18, 3, 55
18, 4, 6
18, 5, 464
18, 6, 0
18, 7, 166
18, 8, 95
18, 9, 0
18, 10, 8
18, 11, 0
18, 12, 11
18, 13, 3
18, 14, 3482
18, 15, 1092
18, 16, 4017
18, 17, 322
19, 1, 0
19, 2, 430
19, 3, 269
19, 4, 313
19, 5, 21
19, 6, 284
19, 7, 141
19, 8, 0
19, 9, 200
19, 10, 22
19, 11, 324
19, 12, 103
19, 13, 0
19, 14, 125
19, 15, 2176
19, 16, 4133
19, 17, 2186
19, 18, 179
20, 1, 319
20, 2, 1748
20, 3, 8898
20, 4, 3834
20, 5, 227
20, 6, 0
20, 7, 5848
20, 8, 275
20, 9, 4937
20, 10, 2238
20, 11, 1126
20, 12, 2325
20, 13, 3
20, 14, 2139
20, 15, 508
20, 16, 10574
20, 17, 9109
20, 18, 936
20, 19, 251
21, 1, 99
21, 2, 0
21, 3, 2
21, 4, 803
21, 5, 44
21, 6, 0
21, 7, 381
21, 8, 103
21, 9, 0
21, 10, 0
21, 11, 0
21, 12, 0
21, 13, 0
21, 14, 2368
21, 15, 1152
21, 16, 1460
21, 17, 6344
21, 18, 210
21, 19, 2139
21, 20, 1963
22, 1, 8
22, 2, 1663
22, 3, 8417
22, 4, 2393
22, 5, 10
22, 6, 0
22, 7, 3588
22, 8, 2
22, 9, 4126
22, 10, 1918
22, 11, 1038
22, 12, 2472
22, 13, 3
22, 14, 335
22, 15, 2288
22, 16, 13060
22, 17, 10238
22, 18, 102
22, 19, 504
22, 20, 7220
22, 21, 160
23, 1, 261
23, 2, 1120
23, 3, 3174
23, 4, 978
23, 5, 142
23, 6, 0
23, 7, 3310
23, 8, 102
23, 9, 480
23, 10, 2190
23, 11, 920
23, 12, 2064
23, 13, 0
23, 14, 983
23, 15, 312
23, 16, 5947
23, 17, 3290
23, 18, 492
23, 19, 193
23, 20, 4715
23, 21, 438
23, 22, 1472
24, 1, 9
24, 2, 681
24, 3, 1087
24, 4, 712
24, 5, 18
24, 6, 0
24, 7, 834
24, 8, 0
24, 9, 171
24, 10, 280
24, 11, 179
24, 12, 681
24, 13, 0
24, 14, 6457
24, 15, 3863
24, 16, 3709
24, 17, 2881
24, 18, 1793
24, 19, 306
24, 20, 939
24, 21, 1294
24, 22, 1991
24, 23, 364
25, 1, 62
25, 2, 277
25, 3, 934
25, 4, 232
25, 5, 194
25, 6, 0
25, 7, 274
25, 8, 13
25, 9, 419
25, 10, 65
25, 11, 58
25, 12, 213
25, 13, 1
25, 14, 8341
25, 15, 2628
25, 16, 10626
25, 17, 4468
25, 18, 3740
25, 19, 548
25, 20, 2326
25, 21, 1745
25, 22, 1939
25, 23, 816
25, 24, 7624
26, 1, 0
26, 2, 13
26, 3, 24
26, 4, 9
26, 5, 0
26, 6, 0
26, 7, 7
26, 8, 0
26, 9, 17
26, 10, 0
26, 11, 2
26, 12, 10
26, 13, 0
26, 14, 1
26, 15, 329
26, 16, 1116
26, 17, 103
26, 18, 1232
26, 19, 44
26, 20, 13
26, 21, 0
26, 22, 112
26, 23, 0
26, 24, 59
26, 25, 597
27, 1, 1601
27, 2, 1399
27, 3, 12808
27, 4, 3554
27, 5, 282
27, 6, 173
27, 7, 3120
27, 8, 146
27, 9, 4152
27, 10, 2666
27, 11, 1998
27, 12, 4006
27, 13, 111
27, 14, 65
27, 15, 7
27, 16, 8383
27, 17, 7978
27, 18, 0
27, 19, 0
27, 20, 5558
27, 21, 0
27, 22, 4569
27, 23, 1706
27, 24, 6
27, 25, 2
27, 26, 0
28, 1, 208
28, 2, 785
28, 3, 7544
28, 4, 1614
28, 5, 114
28, 6, 0
28, 7, 1906
28, 8, 17
28, 9, 1732
28, 10, 2205
28, 11, 270
28, 12, 1855
28, 13, 0
28, 14, 2916
28, 15, 1329
28, 16, 13853
28, 17, 9634
28, 18, 714
28, 19, 493
28, 20, 5063
28, 21, 1470
28, 22, 4312
28, 23, 2664
28, 24, 5779
28, 25, 8462
28, 26, 229
28, 27, 4400
