018_07months_DTI_antsBM
ROI1, ROI2, NumberOfLines
2, 1, 474
3, 1, 1787
3, 2, 5768
4, 1, 466
4, 2, 1242
4, 3, 9291
5, 1, 3147
5, 2, 369
5, 3, 2298
5, 4, 233
6, 1, 7
6, 2, 3086
6, 3, 4743
6, 4, 2750
6, 5, 0
7, 1, 1579
7, 2, 1675
7, 3, 9186
7, 4, 4397
7, 5, 101
7, 6, 2061
8, 1, 223
8, 2, 2987
8, 3, 7703
8, 4, 12795
8, 5, 116
8, 6, 3780
8, 7, 5300
9, 1, 262
9, 2, 633
9, 3, 11110
9, 4, 11432
9, 5, 139
9, 6, 1050
9, 7, 6936
9, 8, 5809
10, 1, 427
10, 2, 50
10, 3, 4296
10, 4, 615
10, 5, 26
10, 6, 32
10, 7, 5435
10, 8, 442
10, 9, 3782
11, 1, 2679
11, 2, 8263
11, 3, 3025
11, 4, 862
11, 5, 715
11, 6, 836
11, 7, 2230
11, 8, 1104
11, 9, 232
11, 10, 791
12, 1, 1814
12, 2, 2193
12, 3, 4550
12, 4, 554
12, 5, 1366
12, 6, 4
12, 7, 2141
12, 8, 80
12, 9, 793
12, 10, 1032
12, 11, 3536
13, 1, 281
13, 2, 19
13, 3, 345
13, 4, 8
13, 5, 772
13, 6, 0
13, 7, 15
13, 8, 0
13, 9, 12
13, 10, 11
13, 11, 0
13, 12, 296
14, 1, 279
14, 2, 2
14, 3, 10
14, 4, 4
14, 5, 64
14, 6, 0
14, 7, 751
14, 8, 32
14, 9, 2
14, 10, 968
14, 11, 313
14, 12, 804
14, 13, 0
15, 1, 0
15, 2, 8
15, 3, 105
15, 4, 2
15, 5, 4
15, 6, 0
15, 7, 250
15, 8, 2
15, 9, 235
15, 10, 65
15, 11, 3
15, 12, 0
15, 13, 0
15, 14, 842
16, 1, 637
16, 2, 185
16, 3, 12310
16, 4, 2799
16, 5, 317
16, 6, 108
16, 7, 7637
16, 8, 2392
16, 9, 6699
16, 10, 4311
16, 11, 329
16, 12, 1721
16, 13, 20
16, 14, 283
16, 15, 2811
17, 1, 0
17, 2, 10
17, 3, 795
17, 4, 169
17, 5, 0
17, 6, 14
17, 7, 914
17, 8, 109
17, 9, 533
17, 10, 110
17, 11, 3
17, 12, 0
17, 13, 0
17, 14, 62
17, 15, 515
17, 16, 5586
18, 1, 255
18, 2, 0
18, 3, 105
18, 4, 3
18, 5, 665
18, 6, 0
18, 7, 51
18, 8, 115
18, 9, 22
18, 10, 14
18, 11, 16
18, 12, 53
18, 13, 0
18, 14, 3030
18, 15, 420
18, 16, 892
18, 17, 0
19, 1, 1
19, 2, 268
19, 3, 694
19, 4, 95
19, 5, 4
19, 6, 257
19, 7, 530
19, 8, 75
19, 9, 117
19, 10, 19
19, 11, 226
19, 12, 0
19, 13, 0
19, 14, 18
19, 15, 836
19, 16, 4779
19, 17, 2517
19, 18, 19
20, 1, 846
20, 2, 155
20, 3, 2809
20, 4, 336
20, 5, 25
20, 6, 55
20, 7, 9502
20, 8, 589
20, 9, 4062
20, 10, 3361
20, 11, 962
20, 12, 1609
20, 13, 11
20, 14, 1996
20, 15, 628
20, 16, 9294
20, 17, 3582
20, 18, 75
20, 19, 1800
21, 1, 6
21, 2, 12
21, 3, 1290
21, 4, 59
21, 5, 11
21, 6, 19
21, 7, 819
21, 8, 116
21, 9, 151
21, 10, 111
21, 11, 3
21, 12, 0
21, 13, 0
21, 14, 1083
21, 15, 937
21, 16, 6923
21, 17, 8431
21, 18, 447
21, 19, 5080
21, 20, 5100
22, 1, 1
22, 2, 4
22, 3, 2373
22, 4, 1043
22, 5, 16
22, 6, 4
22, 7, 4567
22, 8, 719
22, 9, 7058
22, 10, 2104
22, 11, 23
22, 12, 39
22, 13, 0
22, 14, 4
22, 15, 346
22, 16, 6743
22, 17, 5203
22, 18, 67
22, 19, 1852
22, 20, 5618
22, 21, 2960
23, 1, 719
23, 2, 110
23, 3, 1408
23, 4, 332
23, 5, 3
23, 6, 30
23, 7, 3330
23, 8, 618
23, 9, 613
23, 10, 1751
23, 11, 795
23, 12, 1271
23, 13, 0
23, 14, 1016
23, 15, 18
23, 16, 2603
23, 17, 120
23, 18, 6
23, 19, 102
23, 20, 3069
23, 21, 138
23, 22, 150
24, 1, 8
24, 2, 0
24, 3, 96
24, 4, 1
24, 5, 2
24, 6, 0
24, 7, 370
24, 8, 1
24, 9, 218
24, 10, 87
24, 11, 57
24, 12, 3
24, 13, 0
24, 14, 4514
24, 15, 3597
24, 16, 3710
24, 17, 298
24, 18, 2462
24, 19, 90
24, 20, 476
24, 21, 963
24, 22, 263
24, 23, 80
25, 1, 365
25, 2, 12
25, 3, 501
25, 4, 11
25, 5, 10
25, 6, 3
25, 7, 2974
25, 8, 24
25, 9, 635
25, 10, 1997
25, 11, 967
25, 12, 914
25, 13, 0
25, 14, 5535
25, 15, 2737
25, 16, 6291
25, 17, 332
25, 18, 3298
25, 19, 41
25, 20, 4426
25, 21, 846
25, 22, 821
25, 23, 2109
25, 24, 8238
26, 1, 0
26, 2, 0
26, 3, 1
26, 4, 0
26, 5, 12
26, 6, 0
26, 7, 0
26, 8, 0
26, 9, 7
26, 10, 0
26, 11, 0
26, 12, 0
26, 13, 0
26, 14, 0
26, 15, 0
26, 16, 359
26, 17, 0
26, 18, 908
26, 19, 0
26, 20, 0
26, 21, 0
26, 22, 61
26, 23, 0
26, 24, 40
26, 25, 291
27, 1, 290
27, 2, 865
27, 3, 7099
27, 4, 2044
27, 5, 142
27, 6, 48
27, 7, 1804
27, 8, 1561
27, 9, 3271
27, 10, 2053
27, 11, 1775
27, 12, 1942
27, 13, 6
27, 14, 94
27, 15, 35
27, 16, 5079
27, 17, 165
27, 18, 0
27, 19, 57
27, 20, 701
27, 21, 202
27, 22, 1311
27, 23, 650
27, 24, 75
27, 25, 363
27, 26, 0
28, 1, 17
28, 2, 124
28, 3, 3150
28, 4, 1099
28, 5, 13
28, 6, 96
28, 7, 1715
28, 8, 1103
28, 9, 1080
28, 10, 500
28, 11, 135
28, 12, 38
28, 13, 8
28, 14, 1091
28, 15, 1073
28, 16, 5462
28, 17, 612
28, 18, 1690
28, 19, 397
28, 20, 1556
28, 21, 874
28, 22, 432
28, 23, 718
28, 24, 2832
28, 25, 3907
28, 26, 0
28, 27, 1460
