018_03months_DTI_antsBM
Total number of lines/fibers: 145866
ROI1, ROI2, NumberOfLines
2, 1, 1467
3, 1, 1226
3, 2, 3950
4, 1, 197
4, 2, 1365
22, 19, 1736
4, 3, 6924
5, 1, 2020
5, 2, 0
5, 3, 2416
5, 4, 347
6, 1, 62
6, 2, 2750
6, 3, 4107
6, 4, 5696
6, 5, 28
7, 1, 557
7, 2, 215
7, 3, 4539
22, 20, 6770
7, 4, 4844
7, 5, 357
7, 6, 1263
8, 1, 1497
8, 2, 2731
8, 3, 4899
22, 21, 1718
8, 4, 14689
8, 5, 343
8, 6, 3812
8, 7, 2453
9, 1, 27
9, 2, 661
9, 3, 7513
9, 4, 11101
9, 5, 106
9, 6, 4337
9, 7, 7490
9, 8, 3646
10, 1, 480
10, 2, 1
10, 3, 4387
10, 4, 885
10, 5, 6
10, 6, 7
10, 7, 4145
10, 8, 67
10, 9, 1487
11, 1, 3651
11, 2, 5586
11, 3, 2446
11, 4, 685
11, 5, 522
11, 6, 1191
11, 7, 1498
11, 8, 3071
11, 9, 66
11, 10, 319
12, 1, 1266
12, 2, 1154
12, 3, 7856
12, 4, 881
12, 5, 1232
12, 6, 665
12, 7, 1200
12, 8, 1175
12, 9, 130
12, 10, 2467
12, 11, 3284
13, 1, 198
13, 2, 0
13, 3, 433
13, 4, 0
13, 5, 468
13, 6, 0
13, 7, 0
13, 8, 0
13, 9, 0
13, 10, 0
13, 11, 128
13, 12, 301
14, 1, 88
14, 2, 0
14, 3, 2114
14, 4, 21
14, 5, 80
14, 6, 0
14, 7, 609
14, 8, 0
14, 9, 0
14, 10, 1505
14, 11, 49
14, 12, 2387
14, 13, 0
15, 1, 0
15, 2, 3
15, 3, 91
15, 4, 0
15, 5, 0
15, 6, 0
15, 7, 11
15, 8, 0
15, 9, 96
15, 10, 10
15, 11, 0
15, 12, 1
15, 13, 0
15, 14, 1491
16, 1, 554
16, 2, 24
16, 3, 14531
16, 4, 2013
16, 5, 645
16, 6, 328
16, 7, 4859
16, 8, 1040
16, 9, 5733
16, 10, 3387
16, 11, 41
16, 12, 1982
16, 13, 92
16, 14, 1815
16, 15, 2072
17, 1, 325
17, 2, 5
17, 3, 4662
17, 4, 1795
17, 5, 592
17, 6, 80
17, 7, 1317
17, 8, 660
17, 9, 2585
17, 10, 940
17, 11, 0
17, 12, 301
17, 13, 62
17, 14, 429
17, 15, 896
17, 16, 12437
18, 1, 383
18, 2, 0
18, 3, 241
18, 4, 1
18, 5, 513
18, 6, 1
18, 7, 246
18, 8, 218
18, 9, 5
18, 10, 120
18, 11, 2
18, 12, 149
18, 13, 46
18, 14, 3227
18, 15, 870
18, 16, 1867
18, 17, 227
19, 1, 322
19, 2, 12
19, 3, 2175
19, 4, 562
19, 5, 592
19, 6, 105
19, 7, 9
19, 8, 421
19, 9, 369
19, 10, 24
19, 11, 0
19, 12, 266
19, 13, 62
19, 14, 117
19, 15, 253
19, 16, 7498
19, 17, 5552
19, 18, 146
20, 1, 203
20, 2, 11
20, 3, 4151
20, 4, 1434
20, 5, 101
20, 6, 422
20, 7, 7947
20, 8, 507
20, 9, 7040
20, 10, 3343
20, 11, 284
20, 12, 1169
20, 13, 0
20, 14, 3795
20, 15, 490
23, 1, 338
20, 16, 7740
20, 17, 6292
20, 18, 1571
20, 19, 910
21, 1, 354
21, 2, 0
21, 3, 2105
21, 4, 965
21, 5, 627
21, 6, 27
21, 7, 15
21, 8, 436
21, 9, 294
21, 10, 24
21, 11, 0
21, 12, 266
21, 13, 62
21, 14, 3365
21, 15, 999
23, 2, 2
21, 16, 7438
21, 17, 11687
21, 18, 2012
21, 19, 8644
21, 20, 4020
22, 1, 3
22, 2, 2
22, 3, 3869
22, 4, 751
22, 5, 3
22, 6, 230
22, 7, 5337
22, 8, 263
22, 9, 9117
22, 10, 599
22, 11, 6
22, 12, 27
22, 13, 0
22, 14, 5
22, 15, 894
22, 16, 7961
22, 17, 8975
22, 18, 183
22, 19, 1736
22, 20, 6770
22, 21, 1718
23, 1, 338
23, 2, 2
23, 3, 3114
23, 3, 3114
23, 4, 458
23, 4, 458
23, 5, 60
23, 5, 60
23, 6, 203
23, 6, 203
23, 7, 3028
23, 7, 3028
23, 8, 295
23, 8, 295
23, 9, 1858
23, 9, 1858
23, 10, 2500
23, 10, 2500
23, 11, 221
23, 11, 221
23, 12, 1167
23, 12, 1167
23, 13, 0
23, 13, 0
23, 14, 2364
23, 14, 2364
23, 15, 322
23, 15, 322
23, 16, 4042
23, 17, 1240
23, 16, 4042
23, 17, 1240
23, 18, 1266
23, 18, 1266
23, 19, 65
23, 19, 65
23, 20, 5805
23, 20, 5805
23, 21, 1442
23, 21, 1442
23, 22, 1370
23, 22, 1370
24, 1, 5
24, 1, 5
24, 2, 0
24, 3, 78
24, 4, 22
24, 5, 5
24, 6, 3
24, 7, 57
24, 8, 10
24, 9, 25
24, 10, 34
24, 11, 5
24, 12, 61
24, 13, 0
24, 14, 6235
24, 15, 3168
24, 16, 2466
24, 17, 1008
24, 18, 3464
24, 19, 37
24, 20, 1570
24, 21, 2729
24, 22, 607
24, 23, 1258
25, 1, 185
25, 2, 1
25, 3, 3089
25, 4, 16
25, 5, 93
25, 6, 9
25, 7, 1067
25, 8, 17
25, 9, 74
25, 10, 2154
25, 11, 273
25, 12, 3636
25, 13, 0
25, 14, 7941
25, 15, 2627
25, 16, 5805
25, 17, 864
25, 18, 4183
25, 19, 412
25, 20, 5059
25, 21, 2980
25, 22, 464
25, 23, 3547
25, 24, 7685
26, 1, 0
26, 2, 0
26, 3, 38
26, 4, 0
26, 5, 16
26, 6, 0
26, 7, 0
26, 8, 0
26, 9, 0
26, 10, 0
26, 11, 3
26, 12, 11
26, 13, 8
26, 14, 0
26, 15, 35
26, 16, 469
26, 17, 21
26, 18, 1215
26, 19, 22
26, 20, 62
26, 21, 22
26, 22, 31
26, 23, 16
26, 24, 157
26, 25, 392
27, 1, 757
27, 2, 579
27, 3, 11063
27, 4, 1587
27, 5, 639
27, 6, 56
27, 7, 3118
27, 8, 1261
27, 9, 3804
27, 10, 2039
27, 11, 1714
27, 12, 1680
27, 13, 87
27, 14, 199
27, 15, 37
27, 16, 9676
27, 17, 3701
27, 18, 22
27, 19, 1883
27, 20, 2437
27, 21, 1883
27, 22, 2714
27, 23, 1665
27, 24, 10
27, 25, 434
27, 26, 19
28, 1, 323
28, 2, 5
28, 3, 8918
28, 4, 1021
28, 5, 629
28, 6, 62
28, 7, 1565
28, 8, 664
28, 9, 1837
28, 10, 1428
28, 11, 6
28, 12, 317
28, 13, 90
28, 14, 2177
28, 15, 2123
28, 16, 13022
28, 17, 3898
28, 18, 1902
28, 19, 2096
28, 20, 3425
28, 21, 3349
28, 22, 1177
28, 23, 2839
28, 24, 3670
28, 25, 4211
28, 26, 238
28, 27, 6769
