019_08months_DTI_antsBM
Total number of lines/fibers: 200646
019_08months_DTI_antsBM
ROI1, ROI2, NumberOfLines
2, 1, 1027
3, 1, 1995
3, 2, 8831
4, 1, 833
4, 2, 9297
4, 3, 21038
5, 1, 6740
5, 2, 125
5, 3, 6046
5, 4, 2814
6, 1, 856
6, 2, 6300
6, 3, 10292
6, 4, 11599
6, 5, 2377
7, 1, 158
7, 2, 2921
7, 3, 10380
7, 4, 11906
7, 5, 87
7, 6, 1675
8, 1, 1041
8, 2, 3804
8, 3, 7145
8, 4, 14719
8, 5, 2323
8, 6, 6472
8, 7, 3321
9, 1, 168
9, 2, 3605
9, 3, 16530
9, 4, 15887
9, 5, 732
9, 6, 4585
9, 7, 12378
9, 8, 997
10, 1, 62
10, 2, 1406
10, 3, 8768
10, 4, 3892
10, 5, 186
10, 6, 205
10, 7, 7967
10, 8, 497
10, 9, 6995
11, 1, 4235
11, 2, 7178
11, 3, 5350
11, 4, 1553
11, 5, 218
11, 6, 1473
11, 7, 518
11, 8, 1956
11, 9, 639
11, 10, 350
12, 1, 1013
12, 2, 1404
12, 3, 11774
12, 4, 1572
12, 5, 3893
12, 6, 988
12, 7, 1674
12, 8, 1111
12, 9, 1151
12, 10, 1707
12, 11, 1530
13, 1, 402
13, 2, 51
13, 3, 543
13, 4, 201
13, 5, 1567
13, 6, 129
13, 7, 1
13, 8, 127
13, 9, 66
13, 10, 10
13, 11, 23
13, 12, 1428
14, 1, 0
14, 2, 0
14, 3, 2250
14, 4, 214
14, 5, 3
14, 6, 0
14, 7, 645
14, 8, 17
14, 9, 23
14, 10, 450
14, 11, 0
14, 12, 2049
14, 13, 0
15, 1, 2
15, 2, 1193
15, 3, 2456
15, 4, 2646
15, 5, 3
15, 6, 519
15, 7, 2996
15, 8, 2
15, 9, 3683
15, 10, 925
15, 11, 153
15, 12, 7
15, 13, 0
15, 14, 1628
16, 1, 74
16, 2, 1738
16, 3, 25098
16, 4, 8103
16, 5, 821
16, 6, 709
16, 7, 6566
16, 8, 227
16, 9, 13731
16, 10, 7736
16, 11, 1027
16, 12, 3360
16, 13, 41
16, 14, 4849
16, 15, 6489
17, 1, 3
17, 2, 1486
17, 3, 4826
17, 4, 2874
17, 5, 0
17, 6, 698
17, 7, 4921
17, 8, 15
17, 9, 7642
17, 10, 3001
17, 11, 288
17, 12, 15
17, 13, 0
17, 14, 487
17, 15, 5891
17, 16, 14067
18, 1, 467
18, 2, 102
18, 3, 756
18, 4, 204
18, 5, 702
18, 6, 67
18, 7, 198
18, 8, 6
18, 9, 347
18, 10, 89
18, 11, 9
18, 12, 427
18, 13, 87
18, 14, 3756
18, 15, 785
18, 16, 1938
18, 17, 409
19, 1, 0
19, 2, 404
19, 3, 592
19, 4, 720
19, 5, 3
19, 6, 800
19, 7, 177
19, 8, 0
19, 9, 758
19, 10, 16
19, 11, 9
19, 12, 0
19, 13, 0
19, 14, 223
19, 15, 3524
19, 16, 2275
19, 17, 3036
19, 18, 50
20, 1, 14
20, 2, 1634
20, 3, 7536
20, 4, 3426
20, 5, 146
20, 6, 637
20, 7, 12698
20, 8, 215
20, 9, 9418
20, 10, 6174
20, 11, 347
20, 12, 3231
20, 13, 0
20, 14, 5535
20, 15, 5578
20, 16, 13733
20, 17, 11625
20, 18, 1086
20, 19, 3628
21, 1, 0
21, 2, 0
21, 3, 12
21, 4, 29
21, 5, 3
21, 6, 1
21, 7, 90
21, 8, 1
21, 9, 1
21, 10, 77
21, 11, 0
21, 12, 0
21, 13, 0
21, 14, 2259
21, 15, 3811
21, 16, 3248
21, 17, 9634
21, 18, 340
21, 19, 4711
21, 20, 4697
22, 1, 16
22, 2, 1760
22, 3, 7913
22, 4, 3935
22, 5, 162
22, 6, 825
22, 7, 9256
22, 8, 3
22, 9, 16227
22, 10, 5928
22, 11, 402
22, 12, 397
22, 13, 3
22, 14, 179
22, 15, 4991
22, 16, 16904
22, 17, 18409
22, 18, 542
22, 19, 1255
22, 20, 11248
22, 21, 625
23, 1, 3
23, 2, 262
23, 3, 4570
23, 4, 1189
23, 5, 0
23, 6, 115
23, 7, 3585
23, 8, 156
23, 9, 639
23, 10, 3530
23, 11, 67
23, 12, 2441
23, 13, 0
23, 14, 3041
23, 15, 161
23, 16, 4343
23, 17, 1256
23, 18, 649
23, 19, 7
23, 20, 7050
23, 21, 159
23, 22, 878
24, 1, 0
24, 2, 132
24, 3, 2442
24, 4, 1608
24, 5, 0
24, 6, 123
24, 7, 638
24, 8, 2
24, 9, 1562
24, 10, 592
24, 11, 12
24, 12, 15
24, 13, 0
24, 14, 8069
24, 15, 5837
24, 16, 6633
24, 17, 2008
24, 18, 2517
24, 19, 336
24, 20, 1699
24, 21, 2375
24, 22, 1610
24, 23, 160
25, 1, 9
25, 2, 170
25, 3, 6783
25, 4, 2459
25, 5, 95
25, 6, 137
25, 7, 2857
25, 8, 36
25, 9, 2057
25, 10, 2378
25, 11, 51
25, 12, 3309
25, 13, 2
25, 14, 10020
25, 15, 4431
25, 16, 12487
25, 17, 1815
25, 18, 2937
25, 19, 327
25, 20, 9283
25, 21, 2768
25, 22, 1454
25, 23, 4876
25, 24, 11239
26, 1, 14
26, 2, 12
26, 3, 652
26, 4, 628
26, 5, 33
26, 6, 3
26, 7, 0
26, 8, 3
26, 9, 508
26, 10, 14
26, 11, 8
26, 12, 0
26, 13, 26
26, 14, 0
26, 15, 0
26, 16, 1842
26, 17, 262
26, 18, 738
26, 19, 0
26, 20, 0
26, 21, 0
26, 22, 262
26, 23, 0
26, 24, 318
26, 25, 827
27, 1, 259
27, 2, 1311
27, 3, 15056
27, 4, 6089
27, 5, 286
27, 6, 575
27, 7, 2803
27, 8, 407
27, 9, 6936
27, 10, 4246
27, 11, 1326
27, 12, 2174
27, 13, 42
27, 14, 71
27, 15, 1992
27, 16, 13057
27, 17, 3553
27, 18, 210
27, 19, 48
27, 20, 1453
27, 21, 0
27, 22, 4503
27, 23, 939
27, 24, 2239
27, 25, 2494
27, 26, 350
28, 1, 34
28, 2, 797
28, 3, 11820
28, 4, 2921
28, 5, 599
28, 6, 193
28, 7, 2179
28, 8, 133
28, 9, 5907
28, 10, 4195
28, 11, 563
28, 12, 808
28, 13, 38
28, 14, 3767
28, 15, 2698
28, 16, 16035
28, 17, 3166
28, 18, 901
28, 19, 388
28, 20, 3937
28, 21, 2874
28, 22, 5076
28, 23, 1335
28, 24, 6746
28, 25, 7160
28, 26, 0
28, 27, 7471
