020_11months_DTI_antsBM
Total number of lines/fibers: 165140
020_11months_DTI_antsBM
23, 10, 8415
23, 11, 2173
23, 12, 5237
23, 13, 2
23, 14, 4795
23, 15, 155
23, 16, 6321
23, 17, 153
23, 18, 47
23, 19, 69
23, 20, 7251
23, 21, 383
23, 22, 884
24, 1, 4
24, 2, 1
24, 3, 140
24, 4, 13
24, 5, 0
24, 6, 0
24, 7, 75
24, 8, 0
24, 9, 81
24, 10, 30
24, 11, 16
24, 12, 20
24, 13, 0
24, 14, 6701
24, 15, 6462
24, 16, 3471
24, 17, 404
24, 18, 5542
24, 19, 196
24, 20, 463
24, 21, 1722
24, 22, 95
24, 23, 67
25, 1, 3820
25, 2, 49
25, 3, 1325
25, 4, 47
25, 5, 6
25, 6, 0
25, 7, 5094
25, 8, 66
25, 9, 329
25, 10, 4098
25, 11, 2472
25, 12, 6236
25, 13, 0
25, 14, 10851
25, 15, 6864
25, 16, 6608
25, 17, 276
25, 18, 5539
25, 19, 329
25, 20, 7083
25, 21, 1645
25, 22, 50
25, 23, 5740
25, 24, 11691
26, 1, 0
26, 2, 0
26, 3, 0
26, 4, 0
26, 5, 46
26, 6, 0
26, 7, 0
26, 8, 0
26, 9, 0
26, 10, 0
26, 11, 0
26, 12, 0
26, 13, 12
26, 14, 0
26, 15, 0
26, 16, 419
26, 17, 0
26, 18, 1552
26, 19, 0
26, 20, 0
26, 21, 0
26, 22, 0
26, 23, 0
26, 24, 5
26, 25, 10
27, 1, 366
27, 2, 529
27, 3, 13156
27, 4, 1377
27, 5, 167
27, 6, 27
27, 7, 3217
27, 8, 130
27, 9, 5976
27, 10, 6413
27, 11, 2357
27, 12, 3120
27, 13, 2
27, 14, 926
27, 15, 585
27, 16, 11794
27, 17, 180
27, 18, 128
27, 19, 39
27, 20, 1733
27, 21, 218
27, 22, 2126
27, 23, 5582
27, 24, 119
27, 25, 1582
27, 26, 0
28, 1, 55
28, 2, 14
28, 3, 8504
28, 4, 1006
28, 5, 76
28, 6, 0
28, 7, 1553
28, 8, 3
28, 9, 3523
28, 10, 4178
28, 11, 208
28, 12, 584
28, 13, 2
28, 14, 2023
28, 15, 3240
28, 16, 10105
28, 17, 253
28, 18, 2208
28, 19, 111
28, 20, 1305
28, 21, 584
28, 22, 1800
28, 23, 3130
28, 24, 4165
28, 25, 4723
28, 26, 0
28, 27, 6479
