021_11months_DTI_antsBM
Total number of lines/fibers: 175277
ROI1, ROI2, NumberOfLines
2, 1, 1807
3, 1, 424
3, 2, 6453
4, 1, 20
4, 2, 1905
4, 3, 6844
5, 1, 3094
5, 2, 150
5, 3, 2667
5, 4, 269
6, 1, 15
6, 2, 4119
6, 3, 5122
6, 4, 3907
6, 5, 0
7, 1, 137
7, 2, 339
7, 3, 5749
7, 4, 3527
7, 5, 135
7, 6, 497
8, 1, 872
8, 2, 2915
8, 3, 3748
8, 4, 13728
8, 5, 7
8, 6, 4932
8, 7, 3057
9, 1, 42
9, 2, 844
9, 3, 15721
9, 4, 12452
9, 5, 497
9, 6, 2012
9, 7, 6945
9, 8, 4202
10, 1, 8
10, 2, 42
10, 3, 6431
10, 4, 203
10, 5, 52
10, 6, 0
10, 7, 3735
10, 8, 2
10, 9, 3612
11, 1, 4734
11, 2, 9994
11, 3, 3065
11, 4, 597
11, 5, 260
11, 6, 688
11, 7, 361
11, 8, 1627
11, 9, 450
11, 10, 99
12, 1, 1423
12, 2, 2536
12, 3, 10475
12, 4, 1671
12, 5, 4463
12, 6, 168
12, 7, 1556
12, 8, 234
12, 9, 2141
12, 10, 1337
12, 11, 4140
13, 1, 239
13, 2, 1
13, 3, 305
13, 4, 0
13, 5, 837
13, 6, 0
13, 7, 0
13, 8, 0
13, 9, 81
13, 10, 5
13, 11, 0
13, 12, 91
14, 1, 13
14, 2, 4
14, 3, 1935
14, 4, 309
14, 5, 13
14, 6, 19
14, 7, 1090
14, 8, 19
14, 9, 596
14, 10, 300
14, 11, 21
14, 12, 386
14, 13, 0
15, 1, 0
15, 2, 0
15, 3, 28
15, 4, 0
15, 5, 0
15, 6, 0
15, 7, 14
15, 8, 0
15, 9, 57
15, 10, 0
15, 11, 0
15, 12, 0
15, 13, 0
15, 14, 1778
16, 1, 1
16, 2, 44
16, 3, 13171
16, 4, 137
16, 5, 81
16, 6, 0
16, 7, 3591
16, 8, 0
16, 9, 7569
16, 10, 5900
16, 11, 54
16, 12, 407
16, 13, 5
16, 14, 3283
16, 15, 2343
17, 1, 0
17, 2, 0
17, 3, 127
17, 4, 3
17, 5, 0
17, 6, 0
17, 7, 262
17, 8, 38
17, 9, 59
17, 10, 99
17, 11, 0
17, 12, 28
17, 13, 0
17, 14, 631
17, 15, 1050
17, 16, 7601
18, 1, 149
18, 2, 0
18, 3, 106
18, 4, 12
18, 5, 481
18, 6, 0
18, 7, 75
18, 8, 2
18, 9, 61
18, 10, 2
18, 11, 2
18, 12, 57
18, 13, 10
18, 14, 4436
18, 15, 1275
18, 16, 1104
18, 17, 0
19, 1, 0
19, 2, 91
19, 3, 153
19, 4, 36
19, 5, 0
19, 6, 73
19, 7, 176
19, 8, 14
19, 9, 21
19, 10, 97
19, 11, 48
19, 12, 40
19, 13, 0
19, 14, 348
19, 15, 713
19, 16, 3795
19, 17, 3116
19, 18, 0
20, 1, 26
20, 2, 5
20, 3, 4979
20, 4, 561
20, 5, 82
20, 6, 19
20, 7, 8148
20, 8, 24
20, 9, 5893
20, 10, 2599
20, 11, 52
20, 12, 3342
20, 13, 0
20, 14, 3254
20, 15, 174
20, 16, 6047
20, 17, 3069
20, 18, 49
20, 19, 334
21, 1, 1
21, 2, 0
21, 3, 23
21, 4, 1
21, 5, 1
21, 6, 0
21, 7, 20
21, 8, 43
21, 9, 24
21, 10, 0
21, 11, 0
21, 12, 1
21, 13, 0
21, 14, 1536
21, 15, 236
21, 16, 1630
21, 17, 9371
21, 18, 79
21, 19, 821
21, 20, 2207
22, 1, 0
22, 2, 4
22, 3, 3599
22, 4, 227
22, 5, 62
22, 6, 0
22, 7, 5511
22, 8, 0
22, 9, 7837
22, 10, 2227
22, 11, 0
22, 12, 191
22, 13, 5
22, 14, 433
22, 15, 934
22, 16, 16227
22, 17, 13758
22, 18, 17
22, 19, 3053
22, 20, 8952
22, 21, 5222
23, 1, 2
23, 2, 5
23, 3, 4985
23, 4, 403
23, 5, 24
23, 6, 19
23, 7, 2623
23, 8, 19
23, 9, 1976
23, 10, 2527
23, 11, 25
23, 12, 1721
23, 13, 4
23, 14, 1982
23, 15, 9
23, 16, 3933
23, 17, 269
23, 18, 0
23, 19, 166
23, 20, 4793
23, 21, 29
23, 22, 1420
24, 1, 0
24, 2, 0
24, 3, 51
24, 4, 0
24, 5, 0
24, 6, 0
24, 7, 36
24, 8, 0
24, 9, 51
24, 10, 0
24, 11, 0
24, 12, 0
24, 13, 0
24, 14, 7549
24, 15, 3121
24, 16, 4454
24, 17, 898
24, 18, 3894
24, 19, 333
24, 20, 408
24, 21, 800
24, 22, 570
24, 23, 19
25, 1, 242
25, 2, 351
25, 3, 4417
25, 4, 309
25, 5, 0
25, 6, 19
25, 7, 1870
25, 8, 21
25, 9, 602
25, 10, 844
25, 11, 395
25, 12, 4436
25, 13, 0
25, 14, 8168
25, 15, 2125
25, 16, 8187
25, 17, 839
25, 18, 4873
25, 19, 440
25, 20, 7497
25, 21, 884
25, 22, 785
25, 23, 3731
25, 24, 9396
26, 1, 0
26, 2, 0
26, 3, 0
26, 4, 0
26, 5, 79
26, 6, 0
26, 7, 0
26, 8, 0
26, 9, 0
26, 10, 0
26, 11, 0
26, 12, 0
26, 13, 7
26, 14, 12
26, 15, 0
26, 16, 97
26, 17, 0
26, 18, 2151
26, 19, 0
26, 20, 0
26, 21, 0
26, 22, 0
26, 23, 0
26, 24, 37
26, 25, 1287
27, 1, 453
27, 2, 595
27, 3, 11547
27, 4, 477
27, 5, 84
27, 6, 21
27, 7, 3289
27, 8, 20
27, 9, 6657
27, 10, 3531
27, 11, 1369
27, 12, 3262
27, 13, 0
27, 14, 853
27, 15, 21
27, 16, 8603
27, 17, 37
27, 18, 0
27, 19, 59
27, 20, 2665
27, 21, 24
27, 22, 1741
27, 23, 2860
27, 24, 51
27, 25, 2173
27, 26, 0
28, 1, 1
28, 2, 46
28, 3, 6541
28, 4, 354
28, 5, 0
28, 6, 19
28, 7, 1989
28, 8, 19
28, 9, 4193
28, 10, 2421
28, 11, 68
28, 12, 171
28, 13, 0
28, 14, 3529
28, 15, 1191
28, 16, 9459
28, 17, 654
28, 18, 2483
28, 19, 330
28, 20, 2373
28, 21, 291
28, 22, 1175
28, 23, 2080
28, 24, 4018
28, 25, 6786
28, 26, 6
28, 27, 5756
