021_02months_DTI_antsBM
Total number of lines/fibers: 129717
ROI1, ROI2, NumberOfLines
2, 1, 573
3, 1, 3085
3, 2, 4284
4, 1, 1614
4, 2, 3729
4, 3, 22011
5, 1, 733
5, 2, 32
5, 3, 1806
5, 4, 941
6, 1, 431
6, 2, 4125
6, 3, 5595
6, 4, 5025
6, 5, 101
7, 1, 661
7, 2, 761
7, 3, 7798
7, 4, 8582
7, 5, 396
7, 6, 230
8, 1, 652
8, 2, 1355
8, 3, 279
8, 4, 5918
8, 5, 25
8, 6, 2266
8, 7, 1274
9, 1, 882
9, 2, 3026
9, 3, 16105
9, 4, 15468
9, 5, 367
9, 6, 3756
9, 7, 4869
9, 8, 657
10, 1, 202
10, 2, 67
10, 3, 6759
10, 4, 3491
10, 5, 168
10, 6, 132
10, 7, 4060
10, 8, 138
10, 9, 2569
11, 1, 2707
11, 2, 5291
11, 3, 5360
11, 4, 5187
11, 5, 75
11, 6, 4086
11, 7, 767
11, 8, 1407
11, 9, 3197
11, 10, 53
12, 1, 2330
12, 2, 1720
12, 3, 16208
12, 4, 4387
12, 5, 1409
12, 6, 1649
12, 7, 1278
12, 8, 128
12, 9, 4357
12, 10, 2685
12, 11, 1894
13, 1, 5
13, 2, 29
13, 3, 325
13, 4, 136
13, 5, 93
13, 6, 39
13, 7, 1
13, 8, 0
13, 9, 121
13, 10, 51
13, 11, 34
13, 12, 271
14, 1, 6
14, 2, 0
14, 3, 132
14, 4, 5
14, 5, 36
14, 6, 0
14, 7, 26
14, 8, 0
14, 9, 0
14, 10, 17
14, 11, 0
14, 12, 74
14, 13, 0
15, 1, 0
15, 2, 0
15, 3, 1467
15, 4, 155
15, 5, 0
15, 6, 8
15, 7, 1144
15, 8, 0
15, 9, 302
15, 10, 524
15, 11, 0
15, 12, 0
15, 13, 0
15, 14, 523
16, 1, 1010
16, 2, 496
16, 3, 25576
16, 4, 8181
16, 5, 642
16, 6, 121
16, 7, 4485
16, 8, 20
16, 9, 6398
16, 10, 6121
16, 11, 753
16, 12, 5964
16, 13, 134
16, 14, 3296
16, 15, 5300
17, 1, 366
17, 2, 239
17, 3, 15069
17, 4, 7625
17, 5, 60
17, 6, 101
17, 7, 3884
17, 8, 36
17, 9, 4235
17, 10, 5628
17, 11, 256
17, 12, 3314
17, 13, 45
17, 14, 2703
17, 15, 3480
17, 16, 21802
18, 1, 160
18, 2, 0
18, 3, 558
18, 4, 80
18, 5, 1193
18, 6, 0
18, 7, 8
18, 8, 2
18, 9, 0
18, 10, 6
18, 11, 0
18, 12, 150
18, 13, 92
18, 14, 2049
18, 15, 344
18, 16, 4521
18, 17, 1520
19, 1, 0
19, 2, 417
19, 3, 567
19, 4, 372
19, 5, 0
19, 6, 371
19, 7, 105
19, 8, 0
19, 9, 318
19, 10, 4
19, 11, 360
19, 12, 76
19, 13, 0
19, 14, 2
19, 15, 585
19, 16, 882
19, 17, 1035
19, 18, 5
20, 1, 2
20, 2, 13
20, 3, 6635
20, 4, 3070
20, 5, 12
20, 6, 26
20, 7, 5949
20, 8, 50
20, 9, 2423
20, 10, 2832
20, 11, 14
20, 12, 239
20, 13, 3
20, 14, 1484
20, 15, 1129
20, 16, 6344
20, 17, 10009
20, 18, 1091
20, 19, 154
21, 1, 0
21, 2, 0
21, 3, 43
21, 4, 25
21, 5, 0
21, 6, 0
21, 7, 123
21, 8, 30
21, 9, 0
21, 10, 7
21, 11, 1
21, 12, 20
21, 13, 0
21, 14, 598
21, 15, 205
21, 16, 363
21, 17, 5651
21, 18, 324
21, 19, 350
21, 20, 2285
22, 1, 467
22, 2, 112
22, 3, 8659
22, 4, 2888
22, 5, 1
22, 6, 14
22, 7, 4918
22, 8, 0
22, 9, 2805
22, 10, 2151
22, 11, 124
22, 12, 1091
22, 13, 1
22, 14, 1078
22, 15, 3839
22, 16, 14554
22, 17, 15936
22, 18, 1040
22, 19, 765
22, 20, 6776
22, 21, 131
23, 1, 0
23, 2, 137
23, 3, 3161
23, 4, 808
23, 5, 3
23, 6, 59
23, 7, 1320
23, 8, 22
23, 9, 762
23, 10, 1463
23, 11, 149
23, 12, 899
23, 13, 0
23, 14, 415
23, 15, 247
23, 16, 3730
23, 17, 3638
23, 18, 161
23, 19, 23
23, 20, 2243
23, 21, 149
23, 22, 1430
24, 1, 0
24, 2, 1
24, 3, 1264
24, 4, 134
24, 5, 0
24, 6, 8
24, 7, 1133
24, 8, 0
24, 9, 312
24, 10, 506
24, 11, 3
24, 12, 5
24, 13, 0
24, 14, 2570
24, 15, 3804
24, 16, 3689
24, 17, 3161
24, 18, 542
24, 19, 143
24, 20, 1113
24, 21, 31
24, 22, 3082
24, 23, 228
25, 1, 221
25, 2, 89
25, 3, 1430
25, 4, 189
25, 5, 78
25, 6, 46
25, 7, 108
25, 8, 0
25, 9, 243
25, 10, 69
25, 11, 63
25, 12, 505
25, 13, 4
25, 14, 4887
25, 15, 1056
25, 16, 10300
25, 17, 5524
25, 18, 3926
25, 19, 82
25, 20, 1820
25, 21, 421
25, 22, 3658
25, 23, 490
25, 24, 2408
26, 1, 8
26, 2, 0
26, 3, 202
26, 4, 24
26, 5, 10
26, 6, 0
26, 7, 1
26, 8, 0
26, 9, 0
26, 10, 3
26, 11, 0
26, 12, 0
26, 13, 0
26, 14, 0
26, 15, 27
26, 16, 463
26, 17, 113
26, 18, 747
26, 19, 0
26, 20, 1
26, 21, 7
26, 22, 130
26, 23, 1
26, 24, 3
26, 25, 43
27, 1, 2103
27, 2, 954
27, 3, 15562
27, 4, 7720
27, 5, 170
27, 6, 518
27, 7, 3803
27, 8, 48
27, 9, 4639
27, 10, 4567
27, 11, 1797
27, 12, 4479
27, 13, 71
27, 14, 1
27, 15, 612
27, 16, 10647
27, 17, 9831
27, 18, 63
27, 19, 60
27, 20, 3622
27, 21, 3
27, 22, 4697
27, 23, 1898
27, 24, 532
27, 25, 214
27, 26, 16
28, 1, 223
28, 2, 241
28, 3, 13251
28, 4, 4125
28, 5, 40
28, 6, 97
28, 7, 1907
28, 8, 20
28, 9, 2542
28, 10, 1956
28, 11, 495
28, 12, 2268
28, 13, 43
28, 14, 2139
28, 15, 1041
28, 16, 17432
28, 17, 9844
28, 18, 781
28, 19, 138
28, 20, 1986
28, 21, 56
28, 22, 5792
28, 23, 2045
28, 24, 1494
28, 25, 5665
28, 26, 202
28, 27, 4330
