021_05months_DTI_antsBM
Total number of lines/fibers: 165985
ROI1, ROI2, NumberOfLines
2, 1, 2443
3, 1, 847
3, 2, 5704
4, 1, 11
4, 2, 865
4, 3, 7563
5, 1, 3134
5, 2, 13
5, 3, 1183
5, 4, 11
6, 1, 113
6, 2, 2659
6, 3, 5657
6, 4, 2944
6, 5, 0
7, 1, 207
7, 2, 481
7, 3, 6206
7, 4, 3958
7, 5, 2
7, 6, 787
8, 1, 919
8, 2, 4431
8, 3, 7288
8, 4, 11559
8, 5, 0
8, 6, 5688
8, 7, 4488
9, 1, 11
9, 2, 551
9, 3, 13715
9, 4, 13975
9, 5, 19
9, 6, 802
9, 7, 9060
9, 8, 5905
10, 1, 2
10, 2, 35
10, 3, 2349
10, 4, 138
10, 5, 1
10, 6, 0
10, 7, 3283
10, 8, 3
10, 9, 2192
11, 1, 4881
11, 2, 9625
11, 3, 3389
11, 4, 357
11, 5, 303
11, 6, 824
11, 7, 620
11, 8, 2669
11, 9, 159
11, 10, 139
12, 1, 1616
12, 2, 2828
12, 3, 8121
12, 4, 637
12, 5, 2351
12, 6, 367
12, 7, 1004
12, 8, 1557
12, 9, 585
12, 10, 345
12, 11, 5278
13, 1, 89
13, 2, 6
13, 3, 305
13, 4, 1
13, 5, 937
13, 6, 0
13, 7, 0
13, 8, 0
13, 9, 0
13, 10, 0
13, 11, 128
13, 12, 398
14, 1, 0
14, 2, 0
14, 3, 23
14, 4, 0
14, 5, 0
14, 6, 0
14, 7, 63
14, 8, 0
14, 9, 0
14, 10, 34
14, 11, 0
14, 12, 0
14, 13, 0
15, 1, 0
15, 2, 0
15, 3, 0
15, 4, 0
15, 5, 0
15, 6, 0
15, 7, 0
15, 8, 0
15, 9, 0
15, 10, 0
15, 11, 0
15, 12, 0
15, 13, 0
15, 14, 1714
16, 1, 5
16, 2, 265
16, 3, 10033
16, 4, 284
16, 5, 49
16, 6, 226
16, 7, 3573
16, 8, 309
16, 9, 5287
16, 10, 1707
16, 11, 114
16, 12, 151
16, 13, 0
16, 14, 524
16, 15, 2259
17, 1, 0
17, 2, 4
17, 3, 726
17, 4, 237
17, 5, 0
17, 6, 0
17, 7, 862
17, 8, 19
17, 9, 327
17, 10, 145
17, 11, 21
17, 12, 45
17, 13, 0
17, 14, 128
17, 15, 802
17, 16, 8927
18, 1, 22
18, 2, 0
18, 3, 60
18, 4, 0
18, 5, 316
18, 6, 0
18, 7, 0
18, 8, 0
18, 9, 0
18, 10, 0
18, 11, 0
18, 12, 0
18, 13, 47
18, 14, 1794
18, 15, 1401
18, 16, 290
18, 17, 56
19, 1, 0
19, 2, 131
19, 3, 15
19, 4, 0
19, 5, 0
19, 6, 90
19, 7, 1
19, 8, 3
19, 9, 3
19, 10, 1
19, 11, 131
19, 12, 1
19, 13, 0
19, 14, 0
19, 15, 720
19, 16, 1493
19, 17, 958
19, 18, 0
20, 1, 0
20, 2, 203
20, 3, 3268
20, 4, 255
20, 5, 1
20, 6, 1
20, 7, 9192
20, 8, 124
20, 9, 6401
20, 10, 2251
20, 11, 174
20, 12, 776
20, 13, 0
20, 14, 1424
20, 15, 7
20, 16, 6586
20, 17, 4363
20, 18, 3
20, 19, 116
21, 1, 0
21, 2, 8
21, 3, 179
21, 4, 71
21, 5, 0
21, 6, 2
21, 7, 538
21, 8, 150
21, 9, 59
21, 10, 52
21, 11, 18
21, 12, 4
21, 13, 0
21, 14, 1394
21, 15, 549
21, 16, 3700
21, 17, 7775
21, 18, 158
21, 19, 694
21, 20, 5028
22, 1, 2
22, 2, 164
22, 3, 5124
22, 4, 179
22, 5, 1
22, 6, 0
22, 7, 6017
22, 8, 6
22, 9, 9594
22, 10, 1498
22, 11, 17
22, 12, 113
22, 13, 0
22, 14, 60
22, 15, 110
22, 16, 14413
22, 17, 13517
22, 18, 0
22, 19, 516
22, 20, 10316
22, 21, 6060
23, 1, 1
23, 2, 66
23, 3, 1805
23, 4, 54
23, 5, 1
23, 6, 0
23, 7, 3196
23, 8, 0
23, 9, 2238
23, 10, 1123
23, 11, 91
23, 12, 349
23, 13, 0
23, 14, 718
23, 15, 0
23, 16, 1438
23, 17, 294
23, 18, 2
23, 19, 1
23, 20, 4912
23, 21, 120
23, 22, 2388
24, 1, 0
24, 2, 0
24, 3, 21
24, 4, 0
24, 5, 2
24, 6, 0
24, 7, 9
24, 8, 0
24, 9, 4
24, 10, 3
24, 11, 2
24, 12, 0
24, 13, 0
24, 14, 5412
24, 15, 5414
24, 16, 5332
24, 17, 810
24, 18, 2335
24, 19, 104
24, 20, 130
24, 21, 1181
24, 22, 349
24, 23, 3
25, 1, 121
25, 2, 122
25, 3, 2328
25, 4, 4
25, 5, 29
25, 6, 1
25, 7, 1034
25, 8, 1
25, 9, 51
25, 10, 521
25, 11, 134
25, 12, 1416
25, 13, 0
25, 14, 3930
25, 15, 4631
25, 16, 8774
25, 17, 985
25, 18, 2858
25, 19, 65
25, 20, 4107
25, 21, 861
25, 22, 1235
25, 23, 2070
25, 24, 10030
26, 1, 0
26, 2, 0
26, 3, 4
26, 4, 0
26, 5, 25
26, 6, 0
26, 7, 0
26, 8, 0
26, 9, 0
26, 10, 0
26, 11, 0
26, 12, 0
26, 13, 0
26, 14, 0
26, 15, 0
26, 16, 3
26, 17, 0
26, 18, 358
26, 19, 0
26, 20, 0
26, 21, 0
26, 22, 0
26, 23, 0
26, 24, 0
26, 25, 1
27, 1, 786
27, 2, 762
27, 3, 9820
27, 4, 388
27, 5, 10
27, 6, 273
27, 7, 2227
27, 8, 609
27, 9, 4503
27, 10, 1350
27, 11, 2124
27, 12, 2319
27, 13, 0
27, 14, 0
27, 15, 0
27, 16, 6559
27, 17, 554
27, 18, 0
27, 19, 13
27, 20, 1266
27, 21, 163
27, 22, 3100
27, 23, 799
27, 24, 3
27, 25, 335
27, 26, 0
28, 1, 0
28, 2, 62
28, 3, 5657
28, 4, 101
28, 5, 0
28, 6, 1
28, 7, 2058
28, 8, 1
28, 9, 3539
28, 10, 1207
28, 11, 100
28, 12, 65
28, 13, 0
28, 14, 1236
28, 15, 1514
28, 16, 7533
28, 17, 932
28, 18, 1890
28, 19, 9
28, 20, 2524
28, 21, 513
28, 22, 2867
28, 23, 934
28, 24, 2668
28, 25, 4485
28, 26, 0
28, 27, 4324
