022_11months_DTI_antsBM
Total number of lines/fibers: 191293
ROI1, ROI2, NumberOfLines
2, 1, 630
3, 1, 564
3, 2, 5934
4, 1, 20
4, 2, 2588
4, 3, 7707
5, 1, 1037
5, 2, 243
5, 3, 4297
5, 4, 196
6, 1, 18
6, 2, 4232
6, 3, 3892
6, 4, 4274
6, 5, 17
7, 1, 37
7, 2, 468
7, 3, 4294
7, 4, 7608
7, 5, 10
7, 6, 502
8, 1, 75
8, 2, 2435
8, 3, 3533
8, 4, 15104
8, 5, 46
8, 6, 2731
8, 7, 6174
9, 1, 131
9, 2, 2161
9, 3, 13804
13, 1, 25
9, 4, 16259
9, 5, 1601
9, 6, 3934
13, 2, 82
9, 7, 8915
9, 8, 5539
10, 1, 15
10, 2, 52
10, 3, 4521
10, 4, 1481
10, 5, 14
10, 6, 15
13, 3, 104
10, 7, 3740
10, 8, 397
10, 9, 2647
11, 1, 3257
11, 2, 3915
11, 3, 2374
11, 4, 161
11, 5, 733
11, 6, 746
11, 7, 784
11, 8, 1168
11, 9, 141
11, 10, 179
12, 1, 453
12, 2, 1791
13, 4, 5
12, 3, 7302
12, 4, 340
12, 5, 2268
12, 6, 76
12, 7, 432
12, 8, 127
12, 9, 595
12, 10, 492
12, 11, 3138
13, 1, 25
13, 2, 82
13, 3, 104
13, 4, 5
13, 5, 839
13, 5, 839
13, 6, 1
13, 6, 1
13, 7, 0
13, 7, 0
13, 8, 5
13, 8, 5
13, 9, 41
13, 9, 41
13, 10, 0
13, 10, 0
13, 11, 228
13, 11, 228
13, 12, 311
13, 12, 311
14, 1, 23
14, 2, 5
14, 3, 1702
14, 4, 5
14, 5, 71
14, 6, 1
14, 7, 529
14, 8, 3
14, 9, 16
14, 10, 407
14, 11, 6
14, 12, 1809
14, 13, 0
15, 1, 0
15, 2, 0
15, 3, 42
15, 4, 14
15, 5, 0
15, 6, 0
15, 7, 145
15, 8, 0
15, 9, 0
15, 10, 0
15, 11, 25
15, 12, 0
15, 13, 0
15, 14, 1597
16, 1, 23
16, 2, 130
16, 3, 17567
16, 4, 738
16, 5, 374
16, 6, 1
16, 7, 3753
16, 8, 347
16, 9, 1856
16, 10, 3810
16, 11, 274
16, 12, 1818
16, 13, 0
16, 14, 4102
16, 15, 6461
17, 1, 0
17, 2, 47
17, 3, 3424
17, 4, 1654
17, 5, 10
17, 6, 0
17, 7, 2081
17, 8, 5
17, 9, 2830
17, 10, 1533
17, 11, 22
17, 12, 5
17, 13, 0
17, 14, 53
17, 15, 1738
17, 16, 6393
18, 1, 0
18, 2, 1
18, 3, 666
18, 4, 3
18, 5, 164
18, 6, 0
18, 7, 0
18, 8, 0
18, 9, 7
18, 10, 29
18, 11, 1
18, 12, 4
18, 13, 8
18, 14, 4227
18, 15, 1062
18, 16, 1263
18, 17, 4
19, 1, 0
19, 2, 63
19, 3, 287
19, 4, 26
19, 5, 0
19, 6, 61
19, 7, 136
19, 8, 2
19, 9, 32
19, 10, 100
19, 11, 59
19, 12, 0
19, 13, 0
19, 14, 174
19, 15, 2238
19, 16, 5851
19, 17, 3638
19, 18, 1
20, 1, 3
20, 2, 96
20, 3, 4570
20, 4, 2035
20, 5, 10
20, 6, 0
20, 7, 8277
20, 8, 104
20, 9, 8156
20, 10, 2676
20, 11, 110
20, 12, 210
20, 13, 0
20, 14, 1784
20, 15, 754
20, 16, 6837
20, 17, 5048
20, 18, 176
20, 19, 75
21, 1, 0
21, 2, 2
21, 3, 202
21, 4, 365
21, 5, 17
21, 6, 0
21, 7, 1026
21, 8, 134
21, 9, 23
21, 10, 83
21, 11, 48
21, 12, 2
21, 13, 0
21, 14, 1518
21, 15, 631
21, 16, 4070
21, 17, 10232
21, 18, 178
21, 19, 1621
21, 20, 4603
22, 1, 0
22, 2, 102
22, 3, 7807
22, 4, 1962
22, 5, 446
22, 6, 0
22, 7, 5989
22, 8, 12
22, 9, 9866
22, 10, 2626
22, 11, 43
22, 12, 106
22, 13, 0
22, 14, 232
22, 15, 2033
22, 16, 10165
22, 17, 11690
22, 18, 23
22, 19, 3283
22, 20, 9727
22, 21, 1307
23, 1, 3
23, 2, 52
23, 3, 1460
23, 4, 382
23, 5, 0
23, 6, 0
23, 7, 1997
23, 8, 87
23, 9, 559
23, 10, 727
23, 11, 190
23, 12, 16
23, 13, 0
23, 14, 756
23, 15, 195
23, 16, 3451
23, 17, 726
23, 18, 61
23, 19, 72
23, 20, 2920
23, 21, 607
23, 22, 1052
24, 1, 0
24, 2, 0
24, 3, 9
24, 4, 1
24, 5, 0
24, 6, 0
24, 7, 193
24, 8, 0
24, 9, 6
24, 10, 9
24, 11, 0
24, 12, 0
24, 13, 0
24, 14, 7913
24, 15, 3484
24, 16, 3300
24, 17, 628
24, 18, 3060
24, 19, 237
24, 20, 1042
24, 21, 1173
24, 22, 791
24, 23, 20
25, 1, 29
25, 2, 5
25, 3, 2018
25, 4, 21
25, 5, 48
25, 6, 1
25, 7, 898
25, 8, 3
25, 9, 60
25, 10, 587
25, 11, 130
25, 12, 2018
25, 13, 0
25, 14, 10053
25, 15, 3100
25, 16, 8674
25, 17, 294
25, 18, 3781
25, 19, 195
25, 20, 2275
25, 21, 835
25, 22, 555
25, 23, 1086
25, 24, 9700
26, 1, 0
26, 2, 1
26, 3, 534
26, 4, 1
26, 5, 34
26, 6, 0
26, 7, 0
26, 8, 0
26, 9, 0
26, 10, 8
26, 11, 1
26, 12, 3
26, 13, 0
26, 14, 13
26, 15, 0
26, 16, 794
26, 17, 0
26, 18, 1878
26, 19, 0
26, 20, 0
26, 21, 0
26, 22, 6
26, 23, 0
26, 24, 10
26, 25, 499
27, 1, 264
27, 2, 790
27, 3, 14641
27, 4, 1205
27, 5, 1154
27, 6, 18
27, 7, 1864
27, 8, 296
27, 9, 2731
27, 10, 2691
27, 11, 1805
27, 12, 2189
27, 13, 2
27, 14, 537
27, 15, 54
27, 16, 9678
27, 17, 1174
27, 18, 346
27, 19, 204
27, 20, 2166
27, 21, 122
27, 22, 3608
27, 23, 597
27, 24, 9
27, 25, 779
27, 26, 13
28, 1, 0
28, 2, 16
28, 3, 9947
28, 4, 135
28, 5, 2
28, 6, 0
28, 7, 1311
28, 8, 244
28, 9, 656
28, 10, 1979
28, 11, 73
28, 12, 9
28, 13, 0
28, 14, 4900
28, 15, 1325
28, 16, 14185
28, 17, 605
28, 18, 1240
28, 19, 281
28, 20, 2949
28, 21, 1773
28, 22, 2263
28, 23, 1351
28, 24, 6028
28, 25, 5944
28, 26, 741
28, 27, 6528
