023_02months_DTI_antsBM
Total number of lines/fibers: 147913
ROI1, ROI2, NumberOfLines
2, 1, 191
3, 1, 3283
3, 2, 5625
4, 1, 75
4, 2, 5797
4, 3, 8616
5, 1, 228
5, 2, 108
5, 3, 2629
5, 4, 106
6, 1, 69
6, 2, 5821
6, 3, 3204
6, 4, 6960
6, 5, 36
7, 1, 162
7, 2, 1370
7, 3, 3948
7, 4, 6775
7, 5, 33
7, 6, 2616
8, 1, 201
8, 2, 4342
8, 3, 4986
8, 4, 15746
8, 5, 141
8, 6, 5571
8, 7, 3840
9, 1, 18
9, 2, 3055
9, 3, 8359
9, 4, 11006
9, 5, 33
9, 6, 3239
9, 7, 5157
9, 8, 3633
10, 1, 339
10, 2, 36
10, 3, 3411
10, 4, 1000
10, 5, 0
10, 6, 111
10, 7, 3800
10, 8, 435
10, 9, 2997
11, 1, 2802
11, 2, 5637
11, 3, 2150
11, 4, 977
11, 5, 604
11, 6, 793
11, 7, 609
11, 8, 1721
11, 9, 31
11, 10, 29
12, 1, 3958
12, 2, 1094
12, 3, 8890
12, 4, 1126
12, 5, 1626
12, 6, 362
12, 7, 1605
12, 8, 1132
12, 9, 580
12, 10, 1223
12, 11, 1820
13, 1, 6
13, 2, 0
13, 3, 142
13, 4, 0
13, 5, 667
13, 6, 0
13, 7, 0
13, 8, 0
13, 9, 0
13, 10, 0
13, 11, 0
13, 12, 52
14, 1, 3063
14, 2, 0
14, 3, 3379
14, 4, 1
14, 5, 0
14, 6, 0
14, 7, 241
14, 8, 0
14, 9, 13
14, 10, 388
14, 11, 0
14, 12, 4068
14, 13, 0
15, 1, 0
15, 2, 0
15, 3, 50
15, 4, 0
15, 5, 0
15, 6, 0
15, 7, 4
15, 8, 0
15, 9, 103
15, 10, 26
15, 11, 0
15, 12, 0
15, 13, 0
15, 14, 966
16, 1, 1705
16, 2, 104
16, 3, 15607
16, 4, 1941
16, 5, 591
16, 6, 180
16, 7, 5494
16, 8, 416
16, 9, 8867
16, 10, 4087
16, 11, 22
16, 12, 2957
16, 13, 85
16, 14, 4326
16, 15, 3549
17, 1, 14
17, 2, 0
17, 3, 3358
17, 4, 935
17, 5, 142
17, 6, 0
17, 7, 827
17, 8, 80
17, 9, 3622
17, 10, 1456
17, 11, 0
17, 12, 126
17, 13, 37
17, 14, 109
17, 15, 1605
17, 16, 11084
18, 1, 20
18, 2, 1
18, 3, 847
18, 4, 25
18, 5, 180
18, 6, 24
18, 7, 32
18, 8, 24
18, 9, 37
18, 10, 214
18, 11, 0
18, 12, 3
18, 13, 26
18, 14, 4240
18, 15, 778
18, 16, 2497
18, 17, 131
19, 1, 0
19, 2, 92
19, 3, 65
19, 4, 89
19, 5, 0
19, 6, 96
19, 7, 26
19, 8, 21
19, 9, 145
19, 10, 33
19, 11, 6
19, 12, 5
19, 13, 0
19, 14, 94
19, 15, 1025
19, 16, 2274
19, 17, 1347
19, 18, 18
20, 1, 2182
20, 2, 25
20, 3, 5000
20, 4, 1128
20, 5, 0
20, 6, 48
20, 7, 7142
20, 8, 104
20, 9, 5500
20, 10, 3154
20, 11, 35
20, 12, 3923
20, 13, 0
20, 14, 3775
20, 15, 233
20, 16, 10902
20, 17, 5689
20, 18, 230
20, 19, 1154
21, 1, 0
21, 2, 0
21, 3, 69
21, 4, 3
21, 5, 0
21, 6, 0
21, 7, 130
21, 8, 0
21, 9, 88
21, 10, 81
21, 11, 0
21, 12, 0
21, 13, 0
21, 14, 3418
21, 15, 1794
21, 16, 3037
21, 17, 7725
21, 18, 2727
21, 19, 3133
21, 20, 3830
22, 1, 17
22, 2, 1
22, 3, 4757
22, 4, 1161
22, 5, 143
22, 6, 51
22, 7, 3017
22, 8, 152
22, 9, 7084
22, 10, 1806
22, 11, 0
22, 12, 438
22, 13, 37
22, 14, 71
22, 15, 1393
22, 16, 15628
22, 17, 10443
22, 18, 191
22, 19, 1563
22, 20, 5428
22, 21, 761
23, 1, 368
23, 2, 2
23, 3, 1523
23, 4, 456
23, 5, 0
23, 6, 1
23, 7, 3011
23, 8, 0
23, 9, 3232
23, 10, 1606
23, 11, 0
23, 12, 1014
23, 13, 0
23, 14, 727
23, 15, 1
23, 16, 3139
23, 17, 518
23, 18, 42
23, 19, 54
23, 20, 4340
23, 21, 170
23, 22, 2857
24, 1, 0
24, 2, 0
24, 3, 6
24, 4, 1
24, 5, 0
24, 6, 0
24, 7, 40
24, 8, 0
24, 9, 47
24, 10, 6
24, 11, 0
24, 12, 0
24, 13, 0
24, 14, 5248
24, 15, 3169
24, 16, 2832
24, 17, 1571
24, 18, 4136
24, 19, 10
24, 20, 111
24, 21, 3955
24, 22, 816
24, 23, 7
25, 1, 3253
25, 2, 3
25, 3, 3605
25, 4, 150
25, 5, 0
25, 6, 5
25, 7, 1731
25, 8, 5
25, 9, 991
25, 10, 1217
25, 11, 3
25, 12, 4982
25, 13, 0
25, 14, 9462
25, 15, 1873
25, 16, 8327
25, 17, 1029
25, 18, 4369
25, 19, 374
25, 20, 6171
25, 21, 3950
25, 22, 1081
25, 23, 1503
25, 24, 8435
26, 1, 0
26, 2, 0
26, 3, 120
26, 4, 11
26, 5, 0
26, 6, 11
26, 7, 7
26, 8, 11
26, 9, 12
26, 10, 21
26, 11, 0
26, 12, 2
26, 13, 1
26, 14, 0
26, 15, 0
26, 16, 309
26, 17, 3
26, 18, 1270
26, 19, 0
26, 20, 4
26, 21, 0
26, 22, 54
26, 23, 1
26, 24, 0
26, 25, 167
27, 1, 416
27, 2, 303
27, 3, 10841
27, 4, 1354
27, 5, 887
27, 6, 192
27, 7, 1165
27, 8, 458
27, 9, 4355
27, 10, 2059
27, 11, 599
27, 12, 2095
27, 13, 94
27, 14, 13
27, 15, 2
27, 16, 9723
27, 17, 3098
27, 18, 791
27, 19, 2
27, 20, 1734
27, 21, 10
27, 22, 3887
27, 23, 883
27, 24, 6
27, 25, 333
27, 26, 121
28, 1, 37
28, 2, 44
28, 3, 8584
28, 4, 764
28, 5, 589
28, 6, 159
28, 7, 1589
28, 8, 392
28, 9, 2925
28, 10, 1607
28, 11, 4
28, 12, 593
28, 13, 85
28, 14, 2240
28, 15, 1117
28, 16, 12141
28, 17, 1991
28, 18, 3357
28, 19, 214
28, 20, 2612
28, 21, 2397
28, 22, 2921
28, 23, 869
28, 24, 4454
28, 25, 5376
28, 26, 143
28, 27, 6887
