025_10months_DTI_antsBM
ROI1, ROI2, NumberOfLines
2, 1, 336
3, 1, 641
3, 2, 7056
4, 1, 97
4, 2, 4722
4, 3, 8790
5, 1, 1771
5, 2, 170
5, 3, 2676
5, 4, 344
6, 1, 15
6, 2, 4155
6, 3, 4112
6, 4, 6325
6, 5, 53
7, 1, 82
7, 2, 1669
7, 3, 9016
7, 4, 6593
7, 5, 192
7, 6, 1161
8, 1, 706
8, 2, 2870
8, 3, 3003
8, 4, 15420
8, 5, 78
8, 6, 5164
8, 7, 2909
9, 1, 81
9, 2, 4305
9, 3, 13221
9, 4, 15626
9, 5, 580
9, 6, 4740
9, 7, 9365
9, 8, 6782
10, 1, 45
10, 2, 828
10, 3, 4549
10, 4, 1799
10, 5, 150
10, 6, 221
10, 7, 4505
10, 8, 549
10, 9, 2857
11, 1, 3603
11, 2, 8076
11, 3, 3159
11, 4, 2272
11, 5, 927
11, 6, 716
11, 7, 1434
11, 8, 2075
11, 9, 2618
11, 10, 524
12, 1, 1359
12, 2, 1807
12, 3, 8097
12, 4, 1230
12, 5, 3678
12, 6, 242
12, 7, 2341
12, 8, 691
12, 9, 1111
12, 10, 2133
12, 11, 3339
13, 1, 206
13, 2, 70
13, 3, 1852
13, 4, 212
13, 5, 1892
13, 6, 55
13, 7, 301
13, 8, 35
13, 9, 402
13, 10, 56
13, 11, 145
13, 12, 864
14, 1, 7
14, 2, 10
14, 3, 2544
14, 4, 193
14, 5, 0
14, 6, 106
14, 7, 1840
14, 8, 151
14, 9, 207
14, 10, 1642
14, 11, 19
14, 12, 1272
14, 13, 0
15, 1, 3
15, 2, 3
15, 3, 76
15, 4, 37
15, 5, 0
15, 6, 17
15, 7, 433
15, 8, 18
15, 9, 46
15, 10, 37
15, 11, 4
15, 12, 2
15, 13, 0
15, 14, 2363
16, 1, 116
16, 2, 707
16, 3, 11829
16, 4, 1946
16, 5, 670
16, 6, 39
16, 7, 5066
16, 8, 29
16, 9, 6329
16, 10, 1860
16, 11, 784
16, 12, 1178
16, 13, 783
16, 14, 3780
16, 15, 2498
17, 1, 0
17, 2, 420
17, 3, 1359
17, 4, 792
17, 5, 0
17, 6, 9
17, 7, 698
17, 8, 0
17, 9, 2830
17, 10, 104
17, 11, 360
17, 12, 91
17, 13, 0
17, 14, 678
17, 15, 2408
17, 16, 7381
18, 1, 43
18, 2, 2
18, 3, 283
18, 4, 101
18, 5, 153
18, 6, 57
18, 7, 425
18, 8, 58
18, 9, 214
18, 10, 209
18, 11, 5
18, 12, 86
18, 13, 4
18, 14, 5527
18, 15, 2197
18, 16, 3549
18, 17, 433
19, 1, 0
19, 2, 174
19, 3, 133
19, 4, 250
19, 5, 0
19, 6, 258
19, 7, 597
19, 8, 5
19, 9, 241
19, 10, 5
19, 11, 4
19, 12, 0
19, 13, 0
19, 14, 155
19, 15, 1893
19, 16, 2298
19, 17, 2814
19, 18, 39
20, 1, 18
20, 2, 1912
20, 3, 7859
20, 4, 2409
20, 5, 127
20, 6, 147
20, 7, 11188
20, 8, 515
20, 9, 10395
20, 10, 4253
20, 11, 1515
20, 12, 2508
20, 13, 191
20, 14, 4715
20, 15, 1114
20, 16, 7473
20, 17, 7149
20, 18, 1141
20, 19, 2402
21, 1, 0
21, 2, 0
21, 3, 100
21, 4, 297
21, 5, 0
21, 6, 6
21, 7, 627
21, 8, 17
21, 9, 10
21, 10, 38
21, 11, 0
21, 12, 68
21, 13, 0
21, 14, 2383
21, 15, 2217
21, 16, 2043
21, 17, 10384
21, 18, 843
21, 19, 4490
21, 20, 3495
22, 1, 51
22, 2, 2119
22, 3, 5634
22, 4, 2180
22, 5, 219
22, 6, 15
22, 7, 5957
22, 8, 6
22, 9, 11283
22, 10, 1525
22, 11, 1776
22, 12, 484
22, 13, 191
22, 14, 108
22, 15, 1932
22, 16, 8651
22, 17, 9133
22, 18, 396
22, 19, 1456
22, 20, 9646
22, 21, 2166
23, 1, 6
23, 2, 950
23, 3, 4002
23, 4, 1309
23, 5, 0
23, 6, 48
23, 7, 3598
23, 8, 58
23, 9, 2522
23, 10, 3210
23, 11, 702
23, 12, 1772
23, 13, 0
23, 14, 3200
23, 15, 46
23, 16, 3374
23, 17, 487
23, 18, 399
23, 19, 35
23, 20, 5777
23, 21, 174
23, 22, 1456
24, 1, 0
24, 2, 3
24, 3, 70
24, 4, 40
24, 5, 0
24, 6, 40
24, 7, 203
24, 8, 40
24, 9, 35
24, 10, 80
24, 11, 3
24, 12, 42
24, 13, 0
24, 14, 7236
24, 15, 3878
24, 16, 2413
24, 17, 1004
24, 18, 4758
24, 19, 122
24, 20, 662
24, 21, 1803
24, 22, 732
24, 23, 149
25, 1, 34
25, 2, 100
25, 3, 3745
25, 4, 309
25, 5, 0
25, 6, 108
25, 7, 2801
25, 8, 133
25, 9, 518
25, 10, 2538
25, 11, 117
25, 12, 2347
25, 13, 0
25, 14, 11478
25, 15, 3497
25, 16, 7368
25, 17, 1000
25, 18, 6892
25, 19, 168
25, 20, 6034
25, 21, 1398
25, 22, 868
25, 23, 4167
25, 24, 9191
26, 1, 0
26, 2, 0
26, 3, 0
26, 4, 38
26, 5, 9
26, 6, 0
26, 7, 0
26, 8, 0
26, 9, 189
26, 10, 0
26, 11, 0
26, 12, 0
26, 13, 0
26, 14, 1
26, 15, 0
26, 16, 1095
26, 17, 147
26, 18, 3430
26, 19, 0
26, 20, 134
26, 21, 0
26, 22, 274
26, 23, 11
26, 24, 3
26, 25, 587
27, 1, 278
27, 2, 1196
27, 3, 9619
27, 4, 2235
27, 5, 697
27, 6, 162
27, 7, 2955
27, 8, 591
27, 9, 4928
27, 10, 1169
27, 11, 2198
27, 12, 2658
27, 13, 806
27, 14, 229
27, 15, 29
27, 16, 7174
27, 17, 1154
27, 18, 57
27, 19, 13
27, 20, 3060
27, 21, 42
27, 22, 3746
27, 23, 1190
27, 24, 50
27, 25, 447
27, 26, 0
28, 1, 1
28, 2, 258
28, 3, 3642
28, 4, 1100
28, 5, 1
28, 6, 1
28, 7, 875
28, 8, 0
28, 9, 1588
28, 10, 843
28, 11, 440
28, 12, 396
28, 13, 1
28, 14, 3482
28, 15, 2159
28, 16, 7391
28, 17, 341
28, 18, 3978
28, 19, 78
28, 20, 1826
28, 21, 387
28, 22, 929
28, 23, 1448
28, 24, 4912
28, 25, 5898
28, 26, 450
28, 27, 2482
