026_07months_DTI_antsBM
Total number of lines/fibers: 72826
ROI1, ROI2, NumberOfLines
2, 1, 5923
3, 1, 11094
3, 2, 4930
4, 1, 6127
4, 2, 3849
4, 3, 6626
5, 1, 3145
5, 2, 345
5, 3, 6330
5, 4, 769
6, 1, 3757
6, 2, 3063
6, 3, 4271
6, 4, 3717
6, 5, 1237
7, 1, 3178
7, 2, 174
7, 3, 10002
7, 4, 2274
7, 5, 2504
7, 6, 729
8, 1, 6341
8, 2, 2228
8, 3, 4194
8, 4, 7797
8, 5, 790
8, 6, 2105
8, 7, 3023
9, 1, 4663
9, 2, 3163
9, 3, 12017
9, 4, 8915
9, 5, 1966
9, 6, 2369
9, 7, 4289
9, 8, 3991
10, 1, 439
10, 2, 3
10, 3, 4509
10, 4, 264
10, 5, 1123
10, 6, 49
10, 7, 3910
10, 8, 296
10, 9, 1376
11, 1, 10781
11, 2, 6685
11, 3, 6567
11, 4, 5041
11, 5, 22
11, 6, 2504
11, 7, 474
11, 8, 4486
11, 9, 3496
11, 10, 4
12, 1, 5399
12, 2, 523
12, 3, 7054
12, 4, 1683
12, 5, 4442
12, 6, 1996
12, 7, 2866
12, 8, 1219
12, 9, 2037
12, 10, 727
12, 11, 791
13, 1, 256
13, 2, 36
13, 3, 852
13, 4, 86
13, 5, 1434
13, 6, 130
13, 7, 87
13, 8, 86
13, 9, 418
13, 10, 44
13, 11, 0
13, 12, 900
14, 1, 400
14, 2, 9
14, 3, 700
14, 4, 61
14, 5, 1227
14, 6, 28
14, 7, 1289
14, 8, 1043
14, 9, 190
14, 10, 165
14, 11, 54
14, 12, 278
14, 13, 131
15, 1, 129
15, 2, 2
15, 3, 92
15, 4, 9
15, 5, 515
15, 6, 30
15, 7, 116
15, 8, 54
15, 9, 9
15, 10, 17
15, 11, 0
15, 12, 226
15, 13, 234
15, 14, 3929
16, 1, 1003
16, 2, 132
16, 3, 9066
16, 4, 376
16, 5, 4910
16, 6, 274
16, 7, 4146
16, 8, 331
16, 9, 5144
16, 10, 2838
16, 11, 15
16, 12, 2166
16, 13, 1045
16, 14, 7087
16, 15, 2837
17, 1, 276
17, 2, 103
17, 3, 2375
17, 4, 569
17, 5, 1089
17, 6, 188
17, 7, 820
17, 8, 530
17, 9, 1506
17, 10, 639
17, 11, 7
17, 12, 495
17, 13, 464
17, 14, 4630
17, 15, 2321
17, 16, 7680
18, 1, 863
18, 2, 189
18, 3, 2858
18, 4, 159
18, 5, 4061
18, 6, 349
18, 7, 848
18, 8, 305
18, 9, 1512
18, 10, 396
18, 11, 4
18, 12, 1474
18, 13, 1367
18, 14, 3360
18, 15, 1293
18, 16, 5594
18, 17, 1751
19, 1, 25
19, 2, 131
19, 3, 116
19, 4, 131
19, 5, 49
19, 6, 131
19, 7, 25
19, 8, 17
19, 9, 130
19, 10, 0
19, 11, 4
19, 12, 0
19, 13, 0
19, 14, 404
19, 15, 917
19, 16, 888
19, 17, 932
19, 18, 132
20, 1, 369
20, 2, 5
20, 3, 4541
20, 4, 233
20, 5, 1297
20, 6, 39
20, 7, 5491
20, 8, 1086
20, 9, 973
20, 10, 2875
20, 11, 7
20, 12, 907
20, 13, 45
20, 14, 3334
20, 15, 728
20, 16, 3958
20, 17, 1862
20, 18, 704
20, 19, 0
21, 1, 90
21, 2, 0
21, 3, 272
21, 4, 49
21, 5, 5
21, 6, 1
21, 7, 643
21, 8, 836
21, 9, 92
21, 10, 56
21, 11, 54
21, 12, 20
21, 13, 0
21, 14, 5484
21, 15, 2190
21, 16, 1130
21, 17, 5339
21, 18, 52
21, 19, 289
21, 20, 3203
22, 1, 332
22, 2, 54
22, 3, 4145
22, 4, 203
22, 5, 1139
22, 6, 169
22, 7, 2227
22, 8, 153
22, 9, 2483
22, 10, 1220
22, 11, 0
22, 12, 459
22, 13, 411
22, 14, 4314
22, 15, 1648
22, 16, 9131
22, 17, 5504
22, 18, 1421
22, 19, 621
22, 20, 2197
22, 21, 1954
23, 1, 54
23, 2, 1
23, 3, 1187
23, 4, 52
23, 5, 365
23, 6, 0
23, 7, 1185
23, 8, 9
23, 9, 135
23, 10, 1116
23, 11, 3
23, 12, 292
23, 13, 16
23, 14, 23
23, 15, 11
23, 16, 1101
23, 17, 33
23, 18, 122
23, 19, 0
23, 20, 1263
23, 21, 2
23, 22, 330
24, 1, 108
24, 2, 1
24, 3, 111
24, 4, 9
24, 5, 520
24, 6, 30
24, 7, 203
24, 8, 117
24, 9, 22
24, 10, 24
24, 11, 0
24, 12, 125
24, 13, 179
24, 14, 6137
24, 15, 4261
24, 16, 3407
24, 17, 2699
24, 18, 1555
24, 19, 723
24, 20, 1436
24, 21, 3268
24, 22, 2938
24, 23, 6
25, 1, 431
25, 2, 27
25, 3, 1504
25, 4, 67
25, 5, 1897
25, 6, 136
25, 7, 779
25, 8, 314
25, 9, 601
25, 10, 409
25, 11, 11
25, 12, 626
25, 13, 541
25, 14, 6321
25, 15, 2067
25, 16, 6822
25, 17, 3158
25, 18, 4672
25, 19, 296
25, 20, 915
25, 21, 531
25, 22, 1757
25, 23, 111
25, 24, 2696
26, 1, 0
26, 2, 0
26, 3, 178
26, 4, 4
26, 5, 2
26, 6, 0
26, 7, 0
26, 8, 0
26, 9, 164
26, 10, 67
26, 11, 0
26, 12, 0
26, 13, 2
26, 14, 3
26, 15, 2
26, 16, 290
26, 17, 186
26, 18, 427
26, 19, 0
26, 20, 0
26, 21, 0
26, 22, 64
26, 23, 0
26, 24, 3
26, 25, 395
27, 1, 1818
27, 2, 254
27, 3, 5587
27, 4, 635
27, 5, 1930
27, 6, 451
27, 7, 2735
27, 8, 448
27, 9, 2712
27, 10, 1146
27, 11, 439
27, 12, 2441
27, 13, 211
27, 14, 20
27, 15, 8
27, 16, 3177
27, 17, 820
27, 18, 842
27, 19, 0
27, 20, 946
27, 21, 5
27, 22, 649
27, 23, 210
27, 24, 23
27, 25, 231
27, 26, 24
28, 1, 107
28, 2, 70
28, 3, 2782
28, 4, 25
28, 5, 1242
28, 6, 64
28, 7, 790
28, 8, 41
28, 9, 2660
28, 10, 695
28, 11, 0
28, 12, 189
28, 13, 220
28, 14, 3384
28, 15, 1620
28, 16, 6438
28, 17, 3923
28, 18, 2064
28, 19, 543
28, 20, 243
28, 21, 505
28, 22, 1894
28, 23, 74
28, 24, 1875
28, 25, 3750
28, 26, 123
28, 27, 1322
