026_11months_DTI_antsBM
Total number of lines/fibers: 167791
ROI1, ROI2, NumberOfLines
2, 1, 2251
3, 1, 817
3, 2, 5673
4, 1, 82
4, 2, 1621
4, 3, 7192
5, 1, 2052
5, 2, 829
5, 3, 2573
5, 4, 122
6, 1, 17
6, 2, 2221
6, 3, 3089
6, 4, 2963
6, 5, 0
7, 1, 368
7, 2, 254
7, 3, 7867
7, 4, 6389
7, 5, 171
7, 6, 230
8, 1, 1069
8, 2, 2334
8, 3, 1659
8, 4, 11341
8, 5, 23
8, 6, 1647
8, 7, 4314
9, 1, 50
9, 2, 734
9, 3, 10121
9, 4, 13147
9, 5, 202
9, 6, 2335
9, 7, 8753
9, 8, 3901
10, 1, 319
10, 2, 193
10, 3, 4701
10, 4, 1660
10, 5, 213
10, 6, 214
10, 7, 6963
10, 8, 1607
10, 9, 3543
11, 1, 5132
11, 2, 8082
11, 3, 2882
11, 4, 606
11, 5, 1213
11, 6, 245
11, 7, 905
11, 8, 3428
11, 9, 69
11, 10, 432
12, 1, 1117
12, 2, 3053
12, 3, 6218
12, 4, 230
12, 5, 2108
12, 6, 0
12, 7, 2796
12, 8, 385
12, 9, 94
12, 10, 2622
12, 11, 4496
13, 1, 115
13, 2, 18
13, 3, 37
13, 4, 3
13, 5, 576
13, 6, 0
13, 7, 1
13, 8, 0
13, 9, 1
13, 10, 1
13, 11, 17
13, 12, 219
14, 1, 110
14, 2, 0
14, 3, 1505
14, 4, 0
14, 5, 55
14, 6, 0
14, 7, 1996
14, 8, 1
14, 9, 0
14, 10, 1963
14, 11, 98
14, 12, 2872
14, 13, 0
15, 1, 0
15, 2, 0
15, 3, 0
15, 4, 0
15, 5, 0
15, 6, 0
15, 7, 0
15, 8, 0
15, 9, 0
15, 10, 0
15, 11, 0
15, 12, 0
15, 13, 0
15, 14, 1028
16, 1, 332
16, 2, 314
16, 3, 9217
16, 4, 19
16, 5, 554
16, 6, 0
16, 7, 3519
16, 8, 1
16, 9, 1453
16, 10, 4143
16, 11, 429
16, 12, 2897
16, 13, 1
16, 14, 4195
16, 15, 2753
17, 1, 17
17, 2, 0
17, 3, 934
17, 4, 45
17, 5, 37
17, 6, 0
17, 7, 664
17, 8, 0
17, 9, 799
17, 10, 370
17, 11, 1
17, 12, 13
17, 13, 1
17, 14, 105
17, 15, 916
17, 16, 7699
18, 1, 5
18, 2, 0
18, 3, 95
18, 4, 0
18, 5, 146
18, 6, 0
18, 7, 5
18, 8, 0
18, 9, 0
18, 10, 109
18, 11, 0
18, 12, 0
18, 13, 0
18, 14, 5747
18, 15, 777
18, 16, 1836
18, 17, 72
19, 1, 0
19, 2, 11
19, 3, 2
19, 4, 13
19, 5, 0
19, 6, 14
19, 7, 0
19, 8, 0
19, 9, 13
19, 10, 0
19, 11, 4
19, 12, 0
19, 13, 0
19, 14, 0
19, 15, 14
19, 16, 1185
19, 17, 1354
19, 18, 0
20, 1, 80
20, 2, 127
20, 3, 5188
20, 4, 1020
20, 5, 129
20, 6, 0
20, 7, 7558
20, 8, 2
20, 9, 6373
20, 10, 4090
20, 11, 54
20, 12, 1588
20, 13, 1
20, 14, 3903
20, 15, 223
20, 16, 7750
20, 17, 5087
20, 18, 315
20, 19, 83
21, 1, 0
21, 2, 0
21, 3, 0
21, 4, 19
21, 5, 3
21, 6, 0
21, 7, 5
21, 8, 0
21, 9, 0
21, 10, 0
21, 11, 0
21, 12, 0
21, 13, 0
21, 14, 1964
21, 15, 512
21, 16, 1861
21, 17, 9847
21, 18, 57
21, 19, 504
21, 20, 3884
22, 1, 87
22, 2, 66
22, 3, 5988
22, 4, 876
22, 5, 285
22, 6, 0
22, 7, 5110
22, 8, 0
22, 9, 7066
22, 10, 2825
22, 11, 0
22, 12, 60
22, 13, 1
22, 14, 0
22, 15, 359
22, 16, 8651
22, 17, 8483
22, 18, 205
22, 19, 1252
22, 20, 7734
22, 21, 1366
23, 1, 23
23, 2, 110
23, 3, 1303
23, 4, 42
23, 5, 58
23, 6, 0
23, 7, 2370
23, 8, 2
23, 9, 1218
23, 10, 1346
23, 11, 34
23, 12, 260
23, 13, 0
23, 14, 1125
23, 15, 0
23, 16, 2677
23, 17, 749
23, 18, 193
23, 19, 0
23, 20, 3403
23, 21, 279
23, 22, 1996
24, 1, 3
24, 2, 0
24, 3, 13
24, 4, 0
24, 5, 0
24, 6, 0
24, 7, 17
24, 8, 0
24, 9, 10
24, 10, 23
24, 11, 0
24, 12, 3
24, 13, 0
24, 14, 9195
24, 15, 3267
24, 16, 5080
24, 17, 696
24, 18, 4582
24, 19, 13
24, 20, 676
24, 21, 1351
24, 22, 263
24, 23, 61
25, 1, 244
25, 2, 0
25, 3, 1477
25, 4, 22
25, 5, 57
25, 6, 0
25, 7, 2005
25, 8, 3
25, 9, 64
25, 10, 1930
25, 11, 262
25, 12, 3072
25, 13, 0
25, 14, 12506
25, 15, 2960
25, 16, 11125
25, 17, 722
25, 18, 4611
25, 19, 0
25, 20, 4220
25, 21, 1931
25, 22, 257
25, 23, 1359
25, 24, 13803
26, 1, 0
26, 2, 0
26, 3, 46
26, 4, 0
26, 5, 6
26, 6, 0
26, 7, 4
26, 8, 0
26, 9, 0
26, 10, 88
26, 11, 0
26, 12, 0
26, 13, 0
26, 14, 0
26, 15, 9
26, 16, 748
26, 17, 47
26, 18, 2235
26, 19, 0
26, 20, 96
26, 21, 0
26, 22, 162
26, 23, 61
26, 24, 436
26, 25, 789
27, 1, 654
27, 2, 1256
27, 3, 6051
27, 4, 84
27, 5, 568
27, 6, 0
27, 7, 929
27, 8, 14
27, 9, 911
27, 10, 1874
27, 11, 2119
27, 12, 2721
27, 13, 0
27, 14, 264
27, 15, 0
27, 16, 5636
27, 17, 295
27, 18, 69
27, 19, 0
27, 20, 1130
27, 21, 0
27, 22, 2455
27, 23, 615
27, 24, 14
27, 25, 468
27, 26, 37
28, 1, 111
28, 2, 147
28, 3, 5193
28, 4, 14
28, 5, 469
28, 6, 0
28, 7, 487
28, 8, 0
28, 9, 385
28, 10, 1711
28, 11, 0
28, 12, 14
28, 13, 0
28, 14, 3409
28, 15, 1567
28, 16, 8885
28, 17, 914
28, 18, 530
28, 19, 0
28, 20, 1768
28, 21, 504
28, 22, 2167
28, 23, 784
28, 24, 6635
28, 25, 6864
28, 26, 147
28, 27, 4545
