028_07months_DTI_antsBM
ROI1, ROI2, NumberOfLines
2, 1, 1159
3, 1, 3286
3, 2, 6946
4, 1, 191
4, 2, 1249
4, 3, 6275
5, 1, 3417
5, 2, 286
5, 3, 4020
5, 4, 1328
6, 1, 27
6, 2, 3867
6, 3, 6218
6, 4, 3979
6, 5, 0
7, 1, 954
7, 2, 1132
7, 3, 10945
7, 4, 4569
7, 5, 1404
7, 6, 1522
8, 1, 685
8, 2, 2740
8, 3, 5765
8, 4, 17416
8, 5, 56
8, 6, 5688
8, 7, 5041
9, 1, 376
9, 2, 788
9, 3, 19143
9, 4, 14479
9, 5, 1611
9, 6, 3350
9, 7, 9624
9, 8, 8005
10, 1, 1128
10, 2, 342
10, 3, 5075
10, 4, 214
10, 5, 0
10, 6, 51
10, 7, 6262
10, 8, 402
10, 9, 3759
11, 1, 5250
11, 2, 10274
11, 3, 3687
11, 4, 436
11, 5, 1147
11, 6, 571
11, 7, 1255
11, 8, 2030
11, 9, 97
11, 10, 496
12, 1, 3760
12, 2, 2193
12, 3, 7927
12, 4, 210
12, 5, 4228
12, 6, 121
12, 7, 2448
12, 8, 256
12, 9, 928
12, 10, 2233
12, 11, 4389
13, 1, 342
13, 2, 0
13, 3, 404
13, 4, 241
13, 5, 2559
13, 6, 0
13, 7, 251
13, 8, 0
13, 9, 252
13, 10, 0
13, 11, 117
13, 12, 1025
14, 1, 680
14, 2, 0
14, 3, 350
14, 4, 0
14, 5, 0
14, 6, 0
14, 7, 1712
14, 8, 87
14, 9, 0
14, 10, 1079
14, 11, 57
14, 12, 2491
14, 13, 0
15, 1, 0
15, 2, 4
15, 3, 20
15, 4, 0
15, 5, 17
15, 6, 0
15, 7, 33
15, 8, 0
15, 9, 63
15, 10, 8
15, 11, 0
15, 12, 0
15, 13, 6
15, 14, 981
16, 1, 914
16, 2, 124
16, 3, 12234
16, 4, 202
16, 5, 66
16, 6, 5
16, 7, 6729
16, 8, 150
16, 9, 5492
16, 10, 5231
16, 11, 133
16, 12, 3431
16, 13, 11
16, 14, 3785
16, 15, 5195
17, 1, 0
17, 2, 2
17, 3, 863
17, 4, 49
17, 5, 0
17, 6, 0
17, 7, 1065
17, 8, 33
17, 9, 813
17, 10, 306
17, 11, 10
17, 12, 117
17, 13, 0
17, 14, 187
17, 15, 1334
17, 16, 10257
18, 1, 353
18, 2, 0
18, 3, 96
18, 4, 54
18, 5, 770
18, 6, 0
18, 7, 0
18, 8, 0
18, 9, 14
18, 10, 15
18, 11, 0
18, 12, 0
18, 13, 54
18, 14, 5539
18, 15, 882
18, 16, 1961
18, 17, 3
19, 1, 12
19, 2, 192
19, 3, 21
19, 4, 96
19, 5, 0
19, 6, 167
19, 7, 106
19, 8, 11
19, 9, 95
19, 10, 17
19, 11, 99
19, 12, 66
19, 13, 0
19, 14, 235
19, 15, 612
19, 16, 5546
19, 17, 3512
19, 18, 4
20, 1, 898
20, 2, 9
20, 3, 4369
20, 4, 140
20, 5, 6
20, 6, 7
20, 7, 9829
20, 8, 159
20, 9, 6087
20, 10, 3240
20, 11, 2
20, 12, 1669
20, 13, 0
20, 14, 3143
20, 15, 101
20, 16, 11369
20, 17, 5791
20, 18, 178
20, 19, 1244
21, 1, 0
21, 2, 0
21, 3, 20
21, 4, 5
21, 5, 0
21, 6, 0
21, 7, 170
21, 8, 49
21, 9, 0
21, 10, 35
21, 11, 30
21, 12, 57
21, 13, 0
21, 14, 941
21, 15, 448
21, 16, 6009
21, 17, 11862
21, 18, 86
21, 19, 4100
21, 20, 4572
22, 1, 9
22, 2, 3
22, 3, 5126
22, 4, 231
22, 5, 34
22, 6, 0
22, 7, 6756
22, 8, 2
22, 9, 8024
22, 10, 3166
22, 11, 3
22, 12, 148
22, 13, 0
22, 14, 12
22, 15, 638
22, 16, 14480
22, 17, 9582
22, 18, 136
22, 19, 2171
22, 20, 9594
22, 21, 3545
23, 1, 149
23, 2, 129
23, 3, 1878
23, 4, 153
23, 5, 0
23, 6, 6
23, 7, 3942
23, 8, 193
23, 9, 1158
23, 10, 1889
23, 11, 232
23, 12, 524
23, 13, 0
23, 14, 1616
23, 15, 1
23, 16, 3523
23, 17, 318
23, 18, 0
23, 19, 116
23, 20, 4078
23, 21, 385
23, 22, 947
24, 1, 0
24, 2, 0
24, 3, 27
24, 4, 2
24, 5, 17
24, 6, 0
24, 7, 71
24, 8, 0
24, 9, 0
24, 10, 44
24, 11, 33
24, 12, 86
24, 13, 6
24, 14, 6249
24, 15, 4183
24, 16, 4589
24, 17, 614
24, 18, 5717
24, 19, 445
24, 20, 241
24, 21, 1072
24, 22, 49
24, 23, 48
25, 1, 947
25, 2, 22
25, 3, 581
25, 4, 2
25, 5, 18
25, 6, 3
25, 7, 2178
25, 8, 91
25, 9, 19
25, 10, 1690
25, 11, 126
25, 12, 3446
25, 13, 7
25, 14, 10007
25, 15, 3973
25, 16, 12038
25, 17, 412
25, 18, 8630
25, 19, 431
25, 20, 4034
25, 21, 888
25, 22, 244
25, 23, 1961
25, 24, 11095
26, 1, 0
26, 2, 0
26, 3, 0
26, 4, 14
26, 5, 107
26, 6, 0
26, 7, 0
26, 8, 0
26, 9, 9
26, 10, 0
26, 11, 0
26, 12, 0
26, 13, 36
26, 14, 0
26, 15, 25
26, 16, 296
26, 17, 0
26, 18, 5243
26, 19, 0
26, 20, 21
26, 21, 0
26, 22, 30
26, 23, 0
26, 24, 125
26, 25, 1992
27, 1, 442
27, 2, 1150
27, 3, 11239
27, 4, 100
27, 5, 107
27, 6, 48
27, 7, 4013
27, 8, 162
27, 9, 5738
27, 10, 2585
27, 11, 1830
27, 12, 2085
27, 13, 5
27, 14, 0
27, 15, 1
27, 16, 7373
27, 17, 656
27, 18, 65
27, 19, 42
27, 20, 2617
27, 21, 0
27, 22, 3043
27, 23, 1384
27, 24, 0
27, 25, 12
27, 26, 0
28, 1, 0
28, 2, 13
28, 3, 7496
28, 4, 48
28, 5, 0
28, 6, 3
28, 7, 1988
28, 8, 5
28, 9, 3360
28, 10, 1876
28, 11, 25
28, 12, 84
28, 13, 0
28, 14, 2468
28, 15, 1157
28, 16, 10427
28, 17, 116
28, 18, 3546
28, 19, 159
28, 20, 1242
28, 21, 188
28, 22, 1086
28, 23, 1131
28, 24, 4407
28, 25, 5528
28, 26, 0
28, 27, 5212
