1,22.724,63.316,24.494
2,14.699,36.604,23.373
3,26.718,36.036,25.934
4,22.724,32.581,39.208
5,25.942,55.012,12.157
6,17.559,35.297,27.57
7,31.012,38.034,33.686
8,22.915,48.64,38.588
9,24.1,17.862,33.66
10,30.488,37.73,32.192
11,15.878,45.165,20.943
12,23.311,39.832,16.688
13,29.816,45.609,9.0459
14,44.342,62.831,23.843
15,51.36,35.974,22.178
16,39.869,36.074,25.499
17,44.339,32.259,38.258
18,40.924,54.712,11.777
19,47.862,34.956,26.759
20,36.066,39.124,33.149
21,44.294,48.446,37.936
22,41.701,17.428,32.815
23,36.596,37.997,32.218
24,50.502,43.925,19.327
25,42.789,39.735,16.238
26,36.132,46.11,8.3171
27,26.458,40.796,28.975
28,40.248,41.213,28.47
